{
  "results": [
    {
      "id": 328777,
      "adult": false
    },
    {
      "id": 391301,
      "adult": false
    },
    {
      "id": 1536978,
      "adult": false
    },
    {
      "id": 361186,
      "adult": false
    },
    {
      "id": 1544702,
      "adult": false
    },
    {
      "id": 44045,
      "adult": false
    },
    {
      "id": 1236994,
      "adult": false
    },
    {
      "id": 557080,
      "adult": false
    },
    {
      "id": 1457538,
      "adult": false
    },
    {
      "id": 297258,
      "adult": false
    },
    {
      "id": 246871,
      "adult": false
    },
    {
      "id": 11631,
      "adult": false
    },
    {
      "id": 1520586,
      "adult": false
    },
    {
      "id": 1544832,
      "adult": false
    },
    {
      "id": 116315,
      "adult": false
    },
    {
      "id": 54694,
      "adult": false
    },
    {
      "id": 1234821,
      "adult": false
    },
    {
      "id": 328917,
      "adult": false
    },
    {
      "id": 803796,
      "adult": false
    },
    {
      "id": 440630,
      "adult": false
    },
    {
      "id": 1128503,
      "adult": false
    },
    {
      "id": 1448036,
      "adult": false
    },
    {
      "id": 1544833,
      "adult": false
    },
    {
      "id": 497727,
      "adult": false
    },
    {
      "id": 359037,
      "adult": false
    },
    {
      "id": 116318,
      "adult": false
    },
    {
      "id": 1520423,
      "adult": false
    },
    {
      "id": 1542611,
      "adult": false
    },
    {
      "id": 647250,
      "adult": false
    },
    {
      "id": 1163186,
      "adult": false
    },
    {
      "id": 259679,
      "adult": false
    },
    {
      "id": 402239,
      "adult": true
    },
    {
      "id": 862,
      "adult": false
    },
    {
      "id": 328774,
      "adult": false
    },
    {
      "id": 1313582,
      "adult": false
    },
    {
      "id": 1544834,
      "adult": false
    },
    {
      "id": 1053627,
      "adult": false
    },
    {
      "id": 54731,
      "adult": false
    },
    {
      "id": 1544835,
      "adult": false
    },
    {
      "id": 328915,
      "adult": false
    },
    {
      "id": 67305,
      "adult": false
    },
    {
      "id": 549424,
      "adult": false
    },
    {
      "id": 1525315,
      "adult": false
    },
    {
      "id": 942688,
      "adult": false
    },
    {
      "id": 1544836,
      "adult": false
    },
    {
      "id": 1542612,
      "adult": false
    },
    {
      "id": 1544699,
      "adult": false
    },
    {
      "id": 14353,
      "adult": false
    },
    {
      "id": 1265063,
      "adult": false
    },
    {
      "id": 1439615,
      "adult": false
    },
    {
      "id": 392507,
      "adult": false
    },
    {
      "id": 39002,
      "adult": false
    },
    {
      "id": 1165117,
      "adult": false
    },
    {
      "id": 1413805,
      "adult": false
    },
    {
      "id": 54732,
      "adult": false
    },
    {
      "id": 155,
      "adult": false
    },
    {
      "id": 1400731,
      "adult": false
    },
    {
      "id": 1421973,
      "adult": false
    },
    {
      "id": 381928,
      "adult": false
    },
    {
      "id": 11632,
      "adult": false
    },
    {
      "id": 56814,
      "adult": false
    },
    {
      "id": 1490572,
      "adult": false
    },
    {
      "id": 976732,
      "adult": false
    },
    {
      "id": 539745,
      "adult": false
    },
    {
      "id": 1544837,
      "adult": false
    },
    {
      "id": 28175,
      "adult": false
    },
    {
      "id": 348187,
      "adult": false
    },
    {
      "id": 1417675,
      "adult": false
    },
    {
      "id": 654604,
      "adult": false
    },
    {
      "id": 1357929,
      "adult": false
    },
    {
      "id": 1338799,
      "adult": false
    },
    {
      "id": 328772,
      "adult": false
    },
    {
      "id": 9372,
      "adult": false
    },
    {
      "id": 177869,
      "adult": false
    },
    {
      "id": 1205950,
      "adult": false
    },
    {
      "id": 1544198,
      "adult": false
    },
    {
      "id": 11633,
      "adult": false
    },
    {
      "id": 1544838,
      "adult": false
    },
    {
      "id": 261430,
      "adult": false
    },
    {
      "id": 328771,
      "adult": false
    },
    {
      "id": 682447,
      "adult": false
    },
    {
      "id": 105614,
      "adult": false
    },
    {
      "id": 1418524,
      "adult": false
    },
    {
      "id": 116333,
      "adult": false
    },
    {
      "id": 1544208,
      "adult": false
    },
    {
      "id": 592158,
      "adult": false
    },
    {
      "id": 372583,
      "adult": false
    },
    {
      "id": 234363,
      "adult": false
    },
    {
      "id": 1208348,
      "adult": false
    },
    {
      "id": 388960,
      "adult": false
    },
    {
      "id": 377460,
      "adult": false
    },
    {
      "id": 399541,
      "adult": false
    },
    {
      "id": 216731,
      "adult": false
    },
    {
      "id": 999075,
      "adult": false
    },
    {
      "id": 949306,
      "adult": false
    },
    {
      "id": 1218412,
      "adult": false
    },
    {
      "id": 261428,
      "adult": false
    },
    {
      "id": 1035259,
      "adult": false
    },
    {
      "id": 573433,
      "adult": false
    },
    {
      "id": 1544839,
      "adult": false
    }
  ],
  "page": 10,
  "total_pages": 111,
  "total_results": 11088
}