{
  "results": [
    {
      "id": 57859,
      "adult": false
    },
    {
      "id": 1434848,
      "adult": false
    },
    {
      "id": 585908,
      "adult": false
    },
    {
      "id": 1315303,
      "adult": false
    },
    {
      "id": 1460790,
      "adult": false
    },
    {
      "id": 1398902,
      "adult": false
    },
    {
      "id": 1361151,
      "adult": true
    },
    {
      "id": 955780,
      "adult": false
    },
    {
      "id": 472269,
      "adult": false
    },
    {
      "id": 1544817,
      "adult": false
    },
    {
      "id": 1399337,
      "adult": false
    },
    {
      "id": 1171919,
      "adult": false
    },
    {
      "id": 1413099,
      "adult": false
    },
    {
      "id": 58700,
      "adult": false
    },
    {
      "id": 1412388,
      "adult": false
    },
    {
      "id": 1535377,
      "adult": false
    },
    {
      "id": 1516766,
      "adult": false
    },
    {
      "id": 233146,
      "adult": false
    },
    {
      "id": 800282,
      "adult": false
    },
    {
      "id": 1544818,
      "adult": false
    },
    {
      "id": 1542471,
      "adult": null
    },
    {
      "id": 588564,
      "adult": false
    },
    {
      "id": 1464142,
      "adult": false
    },
    {
      "id": 1356053,
      "adult": false
    },
    {
      "id": 11618,
      "adult": false
    },
    {
      "id": 600343,
      "adult": false
    },
    {
      "id": 990140,
      "adult": false
    },
    {
      "id": 1491172,
      "adult": false
    },
    {
      "id": 1450702,
      "adult": false
    },
    {
      "id": 615681,
      "adult": false
    },
    {
      "id": 806553,
      "adult": false
    },
    {
      "id": 449176,
      "adult": false
    },
    {
      "id": 1309465,
      "adult": false
    },
    {
      "id": 1544819,
      "adult": false
    },
    {
      "id": 1466195,
      "adult": false
    },
    {
      "id": 130709,
      "adult": false
    },
    {
      "id": 679874,
      "adult": false
    },
    {
      "id": 492118,
      "adult": false
    },
    {
      "id": 1280916,
      "adult": false
    },
    {
      "id": 622825,
      "adult": false
    },
    {
      "id": 1377505,
      "adult": false
    },
    {
      "id": 630526,
      "adult": false
    },
    {
      "id": 1544820,
      "adult": false
    },
    {
      "id": 63245,
      "adult": false
    },
    {
      "id": 116194,
      "adult": false
    },
    {
      "id": 1401268,
      "adult": false
    },
    {
      "id": 1162,
      "adult": false
    },
    {
      "id": 64396,
      "adult": false
    },
    {
      "id": 646483,
      "adult": false
    },
    {
      "id": 1538323,
      "adult": false
    },
    {
      "id": 65337,
      "adult": false
    },
    {
      "id": 1544465,
      "adult": false
    },
    {
      "id": 653638,
      "adult": false
    },
    {
      "id": 147682,
      "adult": false
    },
    {
      "id": 1130276,
      "adult": false
    },
    {
      "id": 554577,
      "adult": false
    },
    {
      "id": 67415,
      "adult": false
    },
    {
      "id": 91148,
      "adult": false
    },
    {
      "id": 1018634,
      "adult": false
    },
    {
      "id": 678358,
      "adult": false
    },
    {
      "id": 437623,
      "adult": false
    },
    {
      "id": 1544821,
      "adult": null
    },
    {
      "id": 1082415,
      "adult": false
    },
    {
      "id": 1544822,
      "adult": false
    },
    {
      "id": 11620,
      "adult": false
    },
    {
      "id": 680531,
      "adult": false
    },
    {
      "id": 687962,
      "adult": false
    },
    {
      "id": 705993,
      "adult": false
    },
    {
      "id": 716890,
      "adult": false
    },
    {
      "id": 718069,
      "adult": false
    },
    {
      "id": 1523030,
      "adult": false
    },
    {
      "id": 677128,
      "adult": false
    },
    {
      "id": 719092,
      "adult": false
    },
    {
      "id": 1544271,
      "adult": false
    },
    {
      "id": 141030,
      "adult": false
    },
    {
      "id": 736700,
      "adult": false
    },
    {
      "id": 74119,
      "adult": false
    },
    {
      "id": 275464,
      "adult": false
    },
    {
      "id": 96754,
      "adult": false
    },
    {
      "id": 74336,
      "adult": false
    },
    {
      "id": 11621,
      "adult": false
    },
    {
      "id": 744670,
      "adult": false
    },
    {
      "id": 748709,
      "adult": false
    },
    {
      "id": 77076,
      "adult": false
    },
    {
      "id": 1939,
      "adult": false
    },
    {
      "id": 945013,
      "adult": false
    },
    {
      "id": 76532,
      "adult": false
    },
    {
      "id": 1162115,
      "adult": false
    },
    {
      "id": 124892,
      "adult": false
    },
    {
      "id": 778278,
      "adult": false
    },
    {
      "id": 1462780,
      "adult": false
    },
    {
      "id": 1544823,
      "adult": false
    },
    {
      "id": 785505,
      "adult": false
    },
    {
      "id": 116213,
      "adult": false
    },
    {
      "id": 815006,
      "adult": false
    },
    {
      "id": 1162172,
      "adult": false
    },
    {
      "id": 81788,
      "adult": false
    },
    {
      "id": 1544824,
      "adult": false
    },
    {
      "id": 832064,
      "adult": false
    },
    {
      "id": 85723,
      "adult": false
    }
  ],
  "page": 8,
  "total_pages": 111,
  "total_results": 11088
}