{
  "results": [
    {
      "id": 115833,
      "adult": true
    },
    {
      "id": 41209,
      "adult": false
    },
    {
      "id": 642259,
      "adult": false
    },
    {
      "id": 652110,
      "adult": true
    },
    {
      "id": 1532903,
      "adult": false
    },
    {
      "id": 214641,
      "adult": false
    },
    {
      "id": 1531889,
      "adult": false
    },
    {
      "id": 1542192,
      "adult": false
    },
    {
      "id": 56715,
      "adult": false
    },
    {
      "id": 1158385,
      "adult": false
    },
    {
      "id": 2018,
      "adult": false
    },
    {
      "id": 228230,
      "adult": false
    },
    {
      "id": 1158386,
      "adult": false
    },
    {
      "id": 31306,
      "adult": false
    },
    {
      "id": 1374322,
      "adult": false
    },
    {
      "id": 288069,
      "adult": false
    },
    {
      "id": 18423,
      "adult": false
    },
    {
      "id": 1543713,
      "adult": false
    },
    {
      "id": 992099,
      "adult": false
    },
    {
      "id": 25624,
      "adult": false
    },
    {
      "id": 11584,
      "adult": false
    },
    {
      "id": 47939,
      "adult": false
    },
    {
      "id": 1544764,
      "adult": false
    },
    {
      "id": 9073,
      "adult": false
    },
    {
      "id": 533533,
      "adult": false
    },
    {
      "id": 1544765,
      "adult": true
    },
    {
      "id": 71987,
      "adult": false
    },
    {
      "id": 18395,
      "adult": false
    },
    {
      "id": 83714,
      "adult": false
    },
    {
      "id": 1205983,
      "adult": false
    },
    {
      "id": 5503,
      "adult": false
    },
    {
      "id": 27224,
      "adult": false
    },
    {
      "id": 441909,
      "adult": false
    },
    {
      "id": 115842,
      "adult": false
    },
    {
      "id": 1542288,
      "adult": false
    },
    {
      "id": 102203,
      "adult": false
    },
    {
      "id": 1541593,
      "adult": false
    },
    {
      "id": 2907,
      "adult": false
    },
    {
      "id": 32221,
      "adult": false
    },
    {
      "id": 1541864,
      "adult": false
    },
    {
      "id": 1158489,
      "adult": false
    },
    {
      "id": 22189,
      "adult": false
    },
    {
      "id": 39067,
      "adult": false
    },
    {
      "id": 204142,
      "adult": false
    },
    {
      "id": 22711,
      "adult": false
    },
    {
      "id": 199796,
      "adult": false
    },
    {
      "id": 11586,
      "adult": false
    },
    {
      "id": 31608,
      "adult": false
    },
    {
      "id": 671593,
      "adult": false
    },
    {
      "id": 1544766,
      "adult": false
    },
    {
      "id": 600998,
      "adult": true
    },
    {
      "id": 9323,
      "adult": false
    },
    {
      "id": 334171,
      "adult": false
    },
    {
      "id": 199928,
      "adult": false
    },
    {
      "id": 1507251,
      "adult": false
    },
    {
      "id": 16379,
      "adult": false
    },
    {
      "id": 11587,
      "adult": false
    },
    {
      "id": 57834,
      "adult": false
    },
    {
      "id": 1535720,
      "adult": false
    },
    {
      "id": 720795,
      "adult": false
    },
    {
      "id": 115874,
      "adult": false
    },
    {
      "id": 37296,
      "adult": false
    },
    {
      "id": 489932,
      "adult": false
    },
    {
      "id": 1544767,
      "adult": true
    },
    {
      "id": 8769,
      "adult": false
    },
    {
      "id": 1339052,
      "adult": false
    },
    {
      "id": 1158787,
      "adult": false
    },
    {
      "id": 517212,
      "adult": false
    },
    {
      "id": 11588,
      "adult": false
    },
    {
      "id": 666964,
      "adult": false
    },
    {
      "id": 1490143,
      "adult": false
    },
    {
      "id": 1544768,
      "adult": false
    },
    {
      "id": 819000,
      "adult": false
    },
    {
      "id": 1509575,
      "adult": false
    },
    {
      "id": 884304,
      "adult": false
    },
    {
      "id": 1064307,
      "adult": false
    },
    {
      "id": 1158812,
      "adult": false
    },
    {
      "id": 11589,
      "adult": false
    },
    {
      "id": 884288,
      "adult": false
    },
    {
      "id": 1158915,
      "adult": false
    },
    {
      "id": 1486200,
      "adult": false
    },
    {
      "id": 11590,
      "adult": false
    },
    {
      "id": 1544769,
      "adult": true
    },
    {
      "id": 11591,
      "adult": false
    },
    {
      "id": 1543813,
      "adult": false
    },
    {
      "id": 451745,
      "adult": false
    },
    {
      "id": 1544770,
      "adult": false
    },
    {
      "id": 446450,
      "adult": false
    },
    {
      "id": 354984,
      "adult": false
    },
    {
      "id": 11592,
      "adult": false
    },
    {
      "id": 1215232,
      "adult": false
    },
    {
      "id": 11593,
      "adult": false
    },
    {
      "id": 1410961,
      "adult": null
    },
    {
      "id": 1515111,
      "adult": false
    },
    {
      "id": 1086548,
      "adult": false
    },
    {
      "id": 1024111,
      "adult": false
    },
    {
      "id": 185512,
      "adult": false
    },
    {
      "id": 1543698,
      "adult": false
    },
    {
      "id": 1046809,
      "adult": false
    },
    {
      "id": 1544771,
      "adult": false
    }
  ],
  "page": 3,
  "total_pages": 111,
  "total_results": 11088
}