{
  "results": [
    {
      "id": 352037,
      "adult": false
    },
    {
      "id": 1406000,
      "adult": false
    },
    {
      "id": 13051,
      "adult": false
    },
    {
      "id": 1544790,
      "adult": false
    },
    {
      "id": 1208704,
      "adult": false
    },
    {
      "id": 476299,
      "adult": false
    },
    {
      "id": 352187,
      "adult": false
    },
    {
      "id": 248972,
      "adult": false
    },
    {
      "id": 355041,
      "adult": false
    },
    {
      "id": 1241634,
      "adult": false
    },
    {
      "id": 36170,
      "adult": false
    },
    {
      "id": 1097311,
      "adult": false
    },
    {
      "id": 1011566,
      "adult": false
    },
    {
      "id": 617126,
      "adult": false
    },
    {
      "id": 36928,
      "adult": false
    },
    {
      "id": 1246049,
      "adult": false
    },
    {
      "id": 1158840,
      "adult": false
    },
    {
      "id": 115084,
      "adult": false
    },
    {
      "id": 1158834,
      "adult": false
    },
    {
      "id": 1060456,
      "adult": false
    },
    {
      "id": 1091043,
      "adult": false
    },
    {
      "id": 373564,
      "adult": false
    },
    {
      "id": 1237730,
      "adult": false
    },
    {
      "id": 345619,
      "adult": false
    },
    {
      "id": 1544791,
      "adult": false
    },
    {
      "id": 382118,
      "adult": false
    },
    {
      "id": 1163545,
      "adult": false
    },
    {
      "id": 390292,
      "adult": false
    },
    {
      "id": 1514370,
      "adult": false
    },
    {
      "id": 408851,
      "adult": false
    },
    {
      "id": 1382341,
      "adult": false
    },
    {
      "id": 753469,
      "adult": false
    },
    {
      "id": 41178,
      "adult": false
    },
    {
      "id": 415980,
      "adult": false
    },
    {
      "id": 416286,
      "adult": false
    },
    {
      "id": 416549,
      "adult": false
    },
    {
      "id": 1030542,
      "adult": false
    },
    {
      "id": 416787,
      "adult": false
    },
    {
      "id": 417210,
      "adult": false
    },
    {
      "id": 1250600,
      "adult": false
    },
    {
      "id": 1544792,
      "adult": false
    },
    {
      "id": 418124,
      "adult": false
    },
    {
      "id": 419315,
      "adult": false
    },
    {
      "id": 11602,
      "adult": false
    },
    {
      "id": 1544793,
      "adult": null
    },
    {
      "id": 1544794,
      "adult": false
    },
    {
      "id": 420513,
      "adult": false
    },
    {
      "id": 1265316,
      "adult": false
    },
    {
      "id": 93465,
      "adult": false
    },
    {
      "id": 421228,
      "adult": false
    },
    {
      "id": 1544795,
      "adult": false
    },
    {
      "id": 1544796,
      "adult": false
    },
    {
      "id": 422969,
      "adult": false
    },
    {
      "id": 1544797,
      "adult": false
    },
    {
      "id": 423248,
      "adult": false
    },
    {
      "id": 11603,
      "adult": false
    },
    {
      "id": 42506,
      "adult": false
    },
    {
      "id": 1544798,
      "adult": null
    },
    {
      "id": 428152,
      "adult": false
    },
    {
      "id": 435012,
      "adult": false
    },
    {
      "id": 1425725,
      "adult": false
    },
    {
      "id": 1160360,
      "adult": false
    },
    {
      "id": 1544366,
      "adult": false
    },
    {
      "id": 435645,
      "adult": false
    },
    {
      "id": 436611,
      "adult": false
    },
    {
      "id": 11605,
      "adult": false
    },
    {
      "id": 449556,
      "adult": false
    },
    {
      "id": 1544799,
      "adult": null
    },
    {
      "id": 586387,
      "adult": false
    },
    {
      "id": 1497755,
      "adult": false
    },
    {
      "id": 1544800,
      "adult": false
    },
    {
      "id": 11607,
      "adult": false
    },
    {
      "id": 451646,
      "adult": false
    },
    {
      "id": 1417539,
      "adult": false
    },
    {
      "id": 1544801,
      "adult": false
    },
    {
      "id": 1435769,
      "adult": false
    },
    {
      "id": 1160774,
      "adult": false
    },
    {
      "id": 204264,
      "adult": false
    },
    {
      "id": 278,
      "adult": false
    },
    {
      "id": 1192868,
      "adult": false
    },
    {
      "id": 11609,
      "adult": false
    },
    {
      "id": 1250629,
      "adult": false
    },
    {
      "id": 481087,
      "adult": false
    },
    {
      "id": 457435,
      "adult": false
    },
    {
      "id": 21712,
      "adult": false
    },
    {
      "id": 1484752,
      "adult": false
    },
    {
      "id": 1544802,
      "adult": false
    },
    {
      "id": 1160901,
      "adult": false
    },
    {
      "id": 42211,
      "adult": false
    },
    {
      "id": 1527798,
      "adult": false
    },
    {
      "id": 1217690,
      "adult": false
    },
    {
      "id": 55783,
      "adult": false
    },
    {
      "id": 1544803,
      "adult": false
    },
    {
      "id": 1160923,
      "adult": false
    },
    {
      "id": 480748,
      "adult": false
    },
    {
      "id": 1391047,
      "adult": false
    },
    {
      "id": 1273694,
      "adult": false
    },
    {
      "id": 1079244,
      "adult": false
    },
    {
      "id": 116094,
      "adult": false
    },
    {
      "id": 37043,
      "adult": false
    }
  ],
  "page": 6,
  "total_pages": 111,
  "total_results": 11088
}