{
  "results": [
    {
      "id": 12618,
      "adult": false
    },
    {
      "id": 105823,
      "adult": false
    },
    {
      "id": 20115,
      "adult": false
    },
    {
      "id": 1544749,
      "adult": false
    },
    {
      "id": 27040,
      "adult": false
    },
    {
      "id": 1544753,
      "adult": false
    },
    {
      "id": 592831,
      "adult": false
    },
    {
      "id": 1119820,
      "adult": false
    },
    {
      "id": 127651,
      "adult": false
    },
    {
      "id": 1218431,
      "adult": false
    },
    {
      "id": 1544754,
      "adult": false
    },
    {
      "id": 10381,
      "adult": false
    },
    {
      "id": 1043197,
      "adult": false
    },
    {
      "id": 1505211,
      "adult": false
    },
    {
      "id": 1147627,
      "adult": false
    },
    {
      "id": 389779,
      "adult": false
    },
    {
      "id": 1505710,
      "adult": false
    },
    {
      "id": 1217379,
      "adult": false
    },
    {
      "id": 13971,
      "adult": false
    },
    {
      "id": 439293,
      "adult": false
    },
    {
      "id": 1544352,
      "adult": false
    },
    {
      "id": 1330173,
      "adult": false
    },
    {
      "id": 13342,
      "adult": false
    },
    {
      "id": 563400,
      "adult": true
    },
    {
      "id": 701387,
      "adult": false
    },
    {
      "id": 1527628,
      "adult": false
    },
    {
      "id": 1322218,
      "adult": false
    },
    {
      "id": 1544755,
      "adult": false
    },
    {
      "id": 18111,
      "adult": false
    },
    {
      "id": 103663,
      "adult": false
    },
    {
      "id": 62678,
      "adult": false
    },
    {
      "id": 573877,
      "adult": false
    },
    {
      "id": 1544546,
      "adult": false
    },
    {
      "id": 960932,
      "adult": false
    },
    {
      "id": 1539608,
      "adult": false
    },
    {
      "id": 41807,
      "adult": false
    },
    {
      "id": 1054867,
      "adult": false
    },
    {
      "id": 225728,
      "adult": false
    },
    {
      "id": 1544552,
      "adult": false
    },
    {
      "id": 1544756,
      "adult": false
    },
    {
      "id": 29923,
      "adult": false
    },
    {
      "id": 6974,
      "adult": false
    },
    {
      "id": 1544701,
      "adult": null
    },
    {
      "id": 26813,
      "adult": false
    },
    {
      "id": 563406,
      "adult": true
    },
    {
      "id": 1412437,
      "adult": false
    },
    {
      "id": 74149,
      "adult": false
    },
    {
      "id": 1371185,
      "adult": false
    },
    {
      "id": 1544757,
      "adult": false
    },
    {
      "id": 1150780,
      "adult": false
    },
    {
      "id": 868887,
      "adult": false
    },
    {
      "id": 1456230,
      "adult": false
    },
    {
      "id": 1375441,
      "adult": false
    },
    {
      "id": 1253782,
      "adult": false
    },
    {
      "id": 1544758,
      "adult": false
    },
    {
      "id": 115782,
      "adult": false
    },
    {
      "id": 1544390,
      "adult": false
    },
    {
      "id": 859706,
      "adult": false
    },
    {
      "id": 614933,
      "adult": false
    },
    {
      "id": 369720,
      "adult": false
    },
    {
      "id": 566076,
      "adult": false
    },
    {
      "id": 1543115,
      "adult": false
    },
    {
      "id": 1544759,
      "adult": false
    },
    {
      "id": 303571,
      "adult": false
    },
    {
      "id": 83856,
      "adult": true
    },
    {
      "id": 1544760,
      "adult": true
    },
    {
      "id": 1511810,
      "adult": false
    },
    {
      "id": 656191,
      "adult": false
    },
    {
      "id": 1098006,
      "adult": false
    },
    {
      "id": 41586,
      "adult": false
    },
    {
      "id": 691242,
      "adult": false
    },
    {
      "id": 8428,
      "adult": false
    },
    {
      "id": 419704,
      "adult": false
    },
    {
      "id": 1544761,
      "adult": false
    },
    {
      "id": 1544762,
      "adult": true
    },
    {
      "id": 1309973,
      "adult": false
    },
    {
      "id": 320635,
      "adult": false
    },
    {
      "id": 1544763,
      "adult": false
    },
    {
      "id": 259695,
      "adult": false
    },
    {
      "id": 323676,
      "adult": false
    },
    {
      "id": 344677,
      "adult": false
    },
    {
      "id": 87818,
      "adult": false
    },
    {
      "id": 388770,
      "adult": false
    },
    {
      "id": 38303,
      "adult": false
    },
    {
      "id": 60309,
      "adult": false
    },
    {
      "id": 16699,
      "adult": false
    },
    {
      "id": 1322064,
      "adult": false
    },
    {
      "id": 8204,
      "adult": false
    },
    {
      "id": 115810,
      "adult": false
    },
    {
      "id": 9841,
      "adult": false
    },
    {
      "id": 454117,
      "adult": false
    },
    {
      "id": 1476942,
      "adult": false
    },
    {
      "id": 29078,
      "adult": false
    },
    {
      "id": 955686,
      "adult": false
    },
    {
      "id": 20483,
      "adult": false
    },
    {
      "id": 11583,
      "adult": false
    },
    {
      "id": 743086,
      "adult": false
    },
    {
      "id": 256390,
      "adult": false
    },
    {
      "id": 9562,
      "adult": false
    },
    {
      "id": 8698,
      "adult": false
    }
  ],
  "page": 2,
  "total_pages": 111,
  "total_results": 11088
}