{
  "results": [
    {
      "id": 1159968,
      "adult": false
    },
    {
      "id": 348,
      "adult": false
    },
    {
      "id": 1159991,
      "adult": false
    },
    {
      "id": 1544784,
      "adult": false
    },
    {
      "id": 259160,
      "adult": false
    },
    {
      "id": 260085,
      "adult": false
    },
    {
      "id": 1418225,
      "adult": false
    },
    {
      "id": 262189,
      "adult": false
    },
    {
      "id": 1092074,
      "adult": false
    },
    {
      "id": 434756,
      "adult": false
    },
    {
      "id": 1544265,
      "adult": false
    },
    {
      "id": 1436102,
      "adult": false
    },
    {
      "id": 265779,
      "adult": false
    },
    {
      "id": 1083368,
      "adult": true
    },
    {
      "id": 1543842,
      "adult": false
    },
    {
      "id": 116,
      "adult": false
    },
    {
      "id": 1543551,
      "adult": false
    },
    {
      "id": 267233,
      "adult": false
    },
    {
      "id": 267399,
      "adult": false
    },
    {
      "id": 1543950,
      "adult": false
    },
    {
      "id": 1544785,
      "adult": false
    },
    {
      "id": 270400,
      "adult": false
    },
    {
      "id": 271787,
      "adult": false
    },
    {
      "id": 11600,
      "adult": false
    },
    {
      "id": 271789,
      "adult": false
    },
    {
      "id": 272431,
      "adult": false
    },
    {
      "id": 272447,
      "adult": false
    },
    {
      "id": 1406607,
      "adult": false
    },
    {
      "id": 276658,
      "adult": false
    },
    {
      "id": 1160003,
      "adult": false
    },
    {
      "id": 1220564,
      "adult": false
    },
    {
      "id": 284301,
      "adult": false
    },
    {
      "id": 1324187,
      "adult": false
    },
    {
      "id": 288320,
      "adult": false
    },
    {
      "id": 191683,
      "adult": false
    },
    {
      "id": 25998,
      "adult": false
    },
    {
      "id": 288331,
      "adult": false
    },
    {
      "id": 1544786,
      "adult": false
    },
    {
      "id": 291416,
      "adult": false
    },
    {
      "id": 291868,
      "adult": false
    },
    {
      "id": 1544787,
      "adult": false
    },
    {
      "id": 303700,
      "adult": false
    },
    {
      "id": 1160018,
      "adult": false
    },
    {
      "id": 311226,
      "adult": false
    },
    {
      "id": 1034716,
      "adult": false
    },
    {
      "id": 1329673,
      "adult": false
    },
    {
      "id": 1160041,
      "adult": false
    },
    {
      "id": 31299,
      "adult": false
    },
    {
      "id": 1544788,
      "adult": false
    },
    {
      "id": 77891,
      "adult": false
    },
    {
      "id": 282035,
      "adult": false
    },
    {
      "id": 1160078,
      "adult": false
    },
    {
      "id": 313782,
      "adult": false
    },
    {
      "id": 1418358,
      "adult": false
    },
    {
      "id": 319325,
      "adult": false
    },
    {
      "id": 1496142,
      "adult": false
    },
    {
      "id": 1439747,
      "adult": false
    },
    {
      "id": 543466,
      "adult": false
    },
    {
      "id": 322576,
      "adult": false
    },
    {
      "id": 625469,
      "adult": false
    },
    {
      "id": 322577,
      "adult": false
    },
    {
      "id": 322671,
      "adult": false
    },
    {
      "id": 939072,
      "adult": false
    },
    {
      "id": 1212799,
      "adult": false
    },
    {
      "id": 32522,
      "adult": false
    },
    {
      "id": 1300968,
      "adult": false
    },
    {
      "id": 996429,
      "adult": false
    },
    {
      "id": 336054,
      "adult": false
    },
    {
      "id": 173722,
      "adult": false
    },
    {
      "id": 339326,
      "adult": false
    },
    {
      "id": 341248,
      "adult": false
    },
    {
      "id": 1421430,
      "adult": false
    },
    {
      "id": 341252,
      "adult": false
    },
    {
      "id": 42000,
      "adult": false
    },
    {
      "id": 342680,
      "adult": false
    },
    {
      "id": 1418772,
      "adult": false
    },
    {
      "id": 1492201,
      "adult": false
    },
    {
      "id": 30560,
      "adult": false
    },
    {
      "id": 1435690,
      "adult": false
    },
    {
      "id": 11601,
      "adult": false
    },
    {
      "id": 11240,
      "adult": false
    },
    {
      "id": 349261,
      "adult": false
    },
    {
      "id": 116014,
      "adult": false
    },
    {
      "id": 1544789,
      "adult": false
    },
    {
      "id": 134770,
      "adult": false
    },
    {
      "id": 349321,
      "adult": false
    },
    {
      "id": 1523456,
      "adult": false
    },
    {
      "id": 42535,
      "adult": false
    },
    {
      "id": 349359,
      "adult": false
    },
    {
      "id": 1499180,
      "adult": false
    },
    {
      "id": 1542809,
      "adult": null
    },
    {
      "id": 205447,
      "adult": false
    },
    {
      "id": 349585,
      "adult": false
    },
    {
      "id": 350484,
      "adult": false
    },
    {
      "id": 1285846,
      "adult": false
    },
    {
      "id": 933260,
      "adult": false
    },
    {
      "id": 350517,
      "adult": false
    },
    {
      "id": 1276825,
      "adult": false
    },
    {
      "id": 350529,
      "adult": false
    },
    {
      "id": 1253971,
      "adult": false
    }
  ],
  "page": 5,
  "total_pages": 111,
  "total_results": 11088
}