{
  "results": [
    {
      "id": 50294,
      "adult": false
    },
    {
      "id": 473635,
      "adult": false
    },
    {
      "id": 1544804,
      "adult": false
    },
    {
      "id": 53516,
      "adult": false
    },
    {
      "id": 1544805,
      "adult": null
    },
    {
      "id": 1257420,
      "adult": false
    },
    {
      "id": 1160956,
      "adult": false
    },
    {
      "id": 474381,
      "adult": false
    },
    {
      "id": 1078605,
      "adult": false
    },
    {
      "id": 1160972,
      "adult": false
    },
    {
      "id": 1270082,
      "adult": false
    },
    {
      "id": 482107,
      "adult": false
    },
    {
      "id": 407875,
      "adult": false
    },
    {
      "id": 48376,
      "adult": false
    },
    {
      "id": 1544806,
      "adult": false
    },
    {
      "id": 1244890,
      "adult": false
    },
    {
      "id": 1544807,
      "adult": false
    },
    {
      "id": 48593,
      "adult": false
    },
    {
      "id": 1273690,
      "adult": false
    },
    {
      "id": 1544808,
      "adult": false
    },
    {
      "id": 1160981,
      "adult": false
    },
    {
      "id": 49556,
      "adult": false
    },
    {
      "id": 663065,
      "adult": false
    },
    {
      "id": 174675,
      "adult": false
    },
    {
      "id": 495846,
      "adult": false
    },
    {
      "id": 1544809,
      "adult": false
    },
    {
      "id": 1051486,
      "adult": false
    },
    {
      "id": 1161048,
      "adult": false
    },
    {
      "id": 1028478,
      "adult": false
    },
    {
      "id": 1161115,
      "adult": false
    },
    {
      "id": 1447053,
      "adult": false
    },
    {
      "id": 1440171,
      "adult": false
    },
    {
      "id": 1406858,
      "adult": false
    },
    {
      "id": 1544810,
      "adult": false
    },
    {
      "id": 11613,
      "adult": false
    },
    {
      "id": 1199614,
      "adult": false
    },
    {
      "id": 1056803,
      "adult": false
    },
    {
      "id": 1406855,
      "adult": false
    },
    {
      "id": 1401502,
      "adult": false
    },
    {
      "id": 1513276,
      "adult": false
    },
    {
      "id": 116138,
      "adult": false
    },
    {
      "id": 994476,
      "adult": false
    },
    {
      "id": 1523378,
      "adult": false
    },
    {
      "id": 1270816,
      "adult": false
    },
    {
      "id": 34544,
      "adult": false
    },
    {
      "id": 226474,
      "adult": false
    },
    {
      "id": 50458,
      "adult": false
    },
    {
      "id": 1544811,
      "adult": false
    },
    {
      "id": 513551,
      "adult": false
    },
    {
      "id": 1544812,
      "adult": false
    },
    {
      "id": 1461058,
      "adult": false
    },
    {
      "id": 1491681,
      "adult": false
    },
    {
      "id": 192132,
      "adult": false
    },
    {
      "id": 52413,
      "adult": false
    },
    {
      "id": 691363,
      "adult": false
    },
    {
      "id": 1009761,
      "adult": false
    },
    {
      "id": 1542970,
      "adult": false
    },
    {
      "id": 529755,
      "adult": false
    },
    {
      "id": 531714,
      "adult": false
    },
    {
      "id": 199728,
      "adult": false
    },
    {
      "id": 1380045,
      "adult": false
    },
    {
      "id": 1544813,
      "adult": false
    },
    {
      "id": 1005183,
      "adult": false
    },
    {
      "id": 533458,
      "adult": false
    },
    {
      "id": 1544814,
      "adult": false
    },
    {
      "id": 53497,
      "adult": false
    },
    {
      "id": 1544815,
      "adult": false
    },
    {
      "id": 1541515,
      "adult": null
    },
    {
      "id": 39776,
      "adult": false
    },
    {
      "id": 535576,
      "adult": false
    },
    {
      "id": 539663,
      "adult": false
    },
    {
      "id": 543647,
      "adult": false
    },
    {
      "id": 116149,
      "adult": false
    },
    {
      "id": 143628,
      "adult": false
    },
    {
      "id": 430554,
      "adult": false
    },
    {
      "id": 1524469,
      "adult": false
    },
    {
      "id": 1228477,
      "adult": false
    },
    {
      "id": 1541191,
      "adult": false
    },
    {
      "id": 1239306,
      "adult": false
    },
    {
      "id": 1460800,
      "adult": false
    },
    {
      "id": 1460813,
      "adult": false
    },
    {
      "id": 1544816,
      "adult": false
    },
    {
      "id": 1399277,
      "adult": false
    },
    {
      "id": 554524,
      "adult": false
    },
    {
      "id": 1475489,
      "adult": false
    },
    {
      "id": 1295691,
      "adult": false
    },
    {
      "id": 11615,
      "adult": false
    },
    {
      "id": 1376999,
      "adult": false
    },
    {
      "id": 116158,
      "adult": false
    },
    {
      "id": 1203455,
      "adult": false
    },
    {
      "id": 620511,
      "adult": true
    },
    {
      "id": 1502344,
      "adult": false
    },
    {
      "id": 1410483,
      "adult": false
    },
    {
      "id": 11616,
      "adult": false
    },
    {
      "id": 1502189,
      "adult": false
    },
    {
      "id": 995805,
      "adult": false
    },
    {
      "id": 1097015,
      "adult": false
    },
    {
      "id": 1361871,
      "adult": null
    },
    {
      "id": 572158,
      "adult": false
    },
    {
      "id": 116165,
      "adult": false
    }
  ],
  "page": 7,
  "total_pages": 111,
  "total_results": 11088
}