{
  "results": [
    {
      "id": 1109255,
      "adult": false
    },
    {
      "id": 1460412,
      "adult": false
    },
    {
      "id": 170759,
      "adult": false
    },
    {
      "id": 382716,
      "adult": false
    },
    {
      "id": 866616,
      "adult": false
    },
    {
      "id": 1297636,
      "adult": false
    },
    {
      "id": 1128908,
      "adult": false
    },
    {
      "id": 921387,
      "adult": false
    },
    {
      "id": 1544751,
      "adult": false
    },
    {
      "id": 874243,
      "adult": false
    },
    {
      "id": 1104583,
      "adult": false
    },
    {
      "id": 1544445,
      "adult": false
    },
    {
      "id": 1415399,
      "adult": false
    },
    {
      "id": 1544379,
      "adult": false
    },
    {
      "id": 1426262,
      "adult": false
    },
    {
      "id": 1335666,
      "adult": false
    },
    {
      "id": 1279306,
      "adult": false
    },
    {
      "id": 1405530,
      "adult": false
    },
    {
      "id": 1458530,
      "adult": false
    },
    {
      "id": 1475345,
      "adult": false
    },
    {
      "id": 1484403,
      "adult": false
    },
    {
      "id": 1486747,
      "adult": false
    },
    {
      "id": 1512905,
      "adult": false
    },
    {
      "id": 1517316,
      "adult": false
    },
    {
      "id": 1531117,
      "adult": false
    },
    {
      "id": 1533268,
      "adult": false
    },
    {
      "id": 1534205,
      "adult": false
    },
    {
      "id": 1534455,
      "adult": false
    },
    {
      "id": 1534859,
      "adult": false
    },
    {
      "id": 1542195,
      "adult": false
    },
    {
      "id": 1542196,
      "adult": false
    },
    {
      "id": 1462846,
      "adult": false
    },
    {
      "id": 1511474,
      "adult": false
    },
    {
      "id": 1522688,
      "adult": false
    },
    {
      "id": 1527350,
      "adult": false
    },
    {
      "id": 1532499,
      "adult": false
    },
    {
      "id": 1533334,
      "adult": false
    },
    {
      "id": 1533361,
      "adult": false
    },
    {
      "id": 1536147,
      "adult": false
    },
    {
      "id": 1536148,
      "adult": false
    },
    {
      "id": 1536150,
      "adult": false
    },
    {
      "id": 1536153,
      "adult": false
    },
    {
      "id": 1536220,
      "adult": false
    },
    {
      "id": 1544252,
      "adult": false
    },
    {
      "id": 1544420,
      "adult": false
    },
    {
      "id": 1544386,
      "adult": false
    },
    {
      "id": 1544711,
      "adult": null
    },
    {
      "id": 1310677,
      "adult": false
    },
    {
      "id": 1543414,
      "adult": false
    },
    {
      "id": 1455440,
      "adult": false
    },
    {
      "id": 1544335,
      "adult": false
    },
    {
      "id": 1544481,
      "adult": false
    },
    {
      "id": 1544340,
      "adult": true
    },
    {
      "id": 870941,
      "adult": false
    },
    {
      "id": 1326522,
      "adult": false
    },
    {
      "id": 1433707,
      "adult": false
    },
    {
      "id": 1433728,
      "adult": false
    },
    {
      "id": 1513079,
      "adult": false
    },
    {
      "id": 1490521,
      "adult": false
    },
    {
      "id": 1544536,
      "adult": false
    },
    {
      "id": 1544557,
      "adult": false
    },
    {
      "id": 1544631,
      "adult": false
    },
    {
      "id": 1544638,
      "adult": false
    },
    {
      "id": 1544641,
      "adult": false
    },
    {
      "id": 1544646,
      "adult": false
    },
    {
      "id": 1544161,
      "adult": false
    },
    {
      "id": 1544273,
      "adult": false
    },
    {
      "id": 1544519,
      "adult": false
    },
    {
      "id": 1544528,
      "adult": false
    },
    {
      "id": 1544549,
      "adult": false
    },
    {
      "id": 1544565,
      "adult": false
    },
    {
      "id": 1544578,
      "adult": false
    },
    {
      "id": 1544650,
      "adult": false
    },
    {
      "id": 1544533,
      "adult": false
    },
    {
      "id": 1544628,
      "adult": false
    },
    {
      "id": 1544540,
      "adult": false
    },
    {
      "id": 1544657,
      "adult": false
    },
    {
      "id": 1544664,
      "adult": false
    },
    {
      "id": 1446694,
      "adult": false
    },
    {
      "id": 1544612,
      "adult": false
    },
    {
      "id": 1544616,
      "adult": false
    },
    {
      "id": 1544621,
      "adult": false
    },
    {
      "id": 1544625,
      "adult": false
    },
    {
      "id": 1544623,
      "adult": false
    },
    {
      "id": 1544309,
      "adult": false
    },
    {
      "id": 1544447,
      "adult": false
    },
    {
      "id": 1481139,
      "adult": false
    },
    {
      "id": 1518519,
      "adult": false
    },
    {
      "id": 1544725,
      "adult": false
    },
    {
      "id": 1544633,
      "adult": false
    },
    {
      "id": 1533237,
      "adult": false
    },
    {
      "id": 1544483,
      "adult": false
    },
    {
      "id": 1360933,
      "adult": false
    },
    {
      "id": 1544752,
      "adult": true
    },
    {
      "id": 1544750,
      "adult": false
    },
    {
      "id": 417670,
      "adult": false
    },
    {
      "id": 541660,
      "adult": false
    },
    {
      "id": 1544748,
      "adult": false
    },
    {
      "id": 62,
      "adult": false
    },
    {
      "id": 444926,
      "adult": false
    }
  ],
  "page": 1,
  "total_pages": 111,
  "total_results": 11088
}