{
  "results": [
    {
      "id": 859687,
      "adult": false
    },
    {
      "id": 416959,
      "adult": false
    },
    {
      "id": 1036954,
      "adult": false
    },
    {
      "id": 860012,
      "adult": false
    },
    {
      "id": 1544825,
      "adult": false
    },
    {
      "id": 944012,
      "adult": false
    },
    {
      "id": 863138,
      "adult": false
    },
    {
      "id": 11622,
      "adult": false
    },
    {
      "id": 190913,
      "adult": false
    },
    {
      "id": 871983,
      "adult": false
    },
    {
      "id": 1162220,
      "adult": false
    },
    {
      "id": 284,
      "adult": false
    },
    {
      "id": 874537,
      "adult": false
    },
    {
      "id": 605,
      "adult": false
    },
    {
      "id": 1162348,
      "adult": false
    },
    {
      "id": 1544826,
      "adult": false
    },
    {
      "id": 185645,
      "adult": false
    },
    {
      "id": 72824,
      "adult": false
    },
    {
      "id": 1544827,
      "adult": false
    },
    {
      "id": 1544828,
      "adult": null
    },
    {
      "id": 877429,
      "adult": false
    },
    {
      "id": 1335881,
      "adult": false
    },
    {
      "id": 1420733,
      "adult": false
    },
    {
      "id": 1258112,
      "adult": false
    },
    {
      "id": 116248,
      "adult": false
    },
    {
      "id": 884361,
      "adult": false
    },
    {
      "id": 20224,
      "adult": false
    },
    {
      "id": 890154,
      "adult": false
    },
    {
      "id": 1544741,
      "adult": false
    },
    {
      "id": 1544829,
      "adult": false
    },
    {
      "id": 890496,
      "adult": false
    },
    {
      "id": 161,
      "adult": false
    },
    {
      "id": 899199,
      "adult": false
    },
    {
      "id": 11625,
      "adult": false
    },
    {
      "id": 928228,
      "adult": false
    },
    {
      "id": 1267628,
      "adult": false
    },
    {
      "id": 10521,
      "adult": false
    },
    {
      "id": 928241,
      "adult": false
    },
    {
      "id": 125386,
      "adult": false
    },
    {
      "id": 42466,
      "adult": false
    },
    {
      "id": 116253,
      "adult": false
    },
    {
      "id": 949648,
      "adult": false
    },
    {
      "id": 952888,
      "adult": false
    },
    {
      "id": 1544830,
      "adult": false
    },
    {
      "id": 956759,
      "adult": false
    },
    {
      "id": 116272,
      "adult": false
    },
    {
      "id": 584567,
      "adult": false
    },
    {
      "id": 176,
      "adult": false
    },
    {
      "id": 965507,
      "adult": false
    },
    {
      "id": 26155,
      "adult": false
    },
    {
      "id": 96954,
      "adult": false
    },
    {
      "id": 1544831,
      "adult": false
    },
    {
      "id": 1113583,
      "adult": false
    },
    {
      "id": 11628,
      "adult": false
    },
    {
      "id": 1218925,
      "adult": false
    },
    {
      "id": 733585,
      "adult": false
    },
    {
      "id": 1162858,
      "adult": false
    },
    {
      "id": 1061474,
      "adult": false
    },
    {
      "id": 499195,
      "adult": false
    },
    {
      "id": 11629,
      "adult": false
    },
    {
      "id": 116298,
      "adult": false
    },
    {
      "id": 896706,
      "adult": false
    },
    {
      "id": 1490227,
      "adult": false
    },
    {
      "id": 10411,
      "adult": false
    },
    {
      "id": 1163,
      "adult": false
    },
    {
      "id": 356606,
      "adult": false
    },
    {
      "id": 89749,
      "adult": false
    },
    {
      "id": 1490240,
      "adult": false
    },
    {
      "id": 733816,
      "adult": false
    },
    {
      "id": 1523140,
      "adult": false
    },
    {
      "id": 408483,
      "adult": false
    },
    {
      "id": 397229,
      "adult": false
    },
    {
      "id": 798227,
      "adult": null
    },
    {
      "id": 560052,
      "adult": false
    },
    {
      "id": 739542,
      "adult": false
    },
    {
      "id": 763568,
      "adult": false
    },
    {
      "id": 531592,
      "adult": false
    },
    {
      "id": 560050,
      "adult": false
    },
    {
      "id": 560044,
      "adult": false
    },
    {
      "id": 508965,
      "adult": false
    },
    {
      "id": 645757,
      "adult": false
    },
    {
      "id": 1117857,
      "adult": false
    },
    {
      "id": 927254,
      "adult": false
    },
    {
      "id": 1080505,
      "adult": null
    },
    {
      "id": 859438,
      "adult": null
    },
    {
      "id": 18242,
      "adult": false
    },
    {
      "id": 811800,
      "adult": null
    },
    {
      "id": 1004171,
      "adult": false
    },
    {
      "id": 1163029,
      "adult": false
    },
    {
      "id": 1515253,
      "adult": null
    },
    {
      "id": 1515256,
      "adult": null
    },
    {
      "id": 61117,
      "adult": false
    },
    {
      "id": 1515259,
      "adult": null
    },
    {
      "id": 116306,
      "adult": false
    },
    {
      "id": 228194,
      "adult": false
    },
    {
      "id": 429143,
      "adult": false
    },
    {
      "id": 409171,
      "adult": false
    },
    {
      "id": 1532359,
      "adult": false
    },
    {
      "id": 264982,
      "adult": false
    },
    {
      "id": 25164,
      "adult": false
    }
  ],
  "page": 9,
  "total_pages": 111,
  "total_results": 11088
}