{
  "results": [
    {
      "id": 1544772,
      "adult": false
    },
    {
      "id": 1055722,
      "adult": false
    },
    {
      "id": 90526,
      "adult": false
    },
    {
      "id": 105751,
      "adult": false
    },
    {
      "id": 1460858,
      "adult": false
    },
    {
      "id": 106550,
      "adult": false
    },
    {
      "id": 106553,
      "adult": false
    },
    {
      "id": 1543568,
      "adult": false
    },
    {
      "id": 1075714,
      "adult": false
    },
    {
      "id": 1544773,
      "adult": false
    },
    {
      "id": 1544774,
      "adult": false
    },
    {
      "id": 598654,
      "adult": false
    },
    {
      "id": 1544775,
      "adult": true
    },
    {
      "id": 109099,
      "adult": false
    },
    {
      "id": 1092613,
      "adult": false
    },
    {
      "id": 8383,
      "adult": false
    },
    {
      "id": 1261616,
      "adult": false
    },
    {
      "id": 1109236,
      "adult": false
    },
    {
      "id": 1127546,
      "adult": false
    },
    {
      "id": 1531023,
      "adult": false
    },
    {
      "id": 1142518,
      "adult": false
    },
    {
      "id": 1439116,
      "adult": false
    },
    {
      "id": 1147266,
      "adult": false
    },
    {
      "id": 1149084,
      "adult": false
    },
    {
      "id": 1544776,
      "adult": false
    },
    {
      "id": 118179,
      "adult": false
    },
    {
      "id": 1182190,
      "adult": false
    },
    {
      "id": 1194791,
      "adult": false
    },
    {
      "id": 1194811,
      "adult": false
    },
    {
      "id": 120629,
      "adult": false
    },
    {
      "id": 1211738,
      "adult": false
    },
    {
      "id": 123377,
      "adult": false
    },
    {
      "id": 1235749,
      "adult": false
    },
    {
      "id": 124316,
      "adult": false
    },
    {
      "id": 339727,
      "adult": false
    },
    {
      "id": 1254,
      "adult": false
    },
    {
      "id": 215881,
      "adult": false
    },
    {
      "id": 125502,
      "adult": false
    },
    {
      "id": 511194,
      "adult": false
    },
    {
      "id": 1421845,
      "adult": false
    },
    {
      "id": 125951,
      "adult": false
    },
    {
      "id": 1315076,
      "adult": false
    },
    {
      "id": 1239655,
      "adult": false
    },
    {
      "id": 1274236,
      "adult": true
    },
    {
      "id": 1544777,
      "adult": false
    },
    {
      "id": 1544778,
      "adult": false
    },
    {
      "id": 580780,
      "adult": true
    },
    {
      "id": 1311793,
      "adult": false
    },
    {
      "id": 1314391,
      "adult": false
    },
    {
      "id": 1484155,
      "adult": false
    },
    {
      "id": 1359587,
      "adult": false
    },
    {
      "id": 1223178,
      "adult": false
    },
    {
      "id": 1314450,
      "adult": false
    },
    {
      "id": 1159477,
      "adult": false
    },
    {
      "id": 132165,
      "adult": false
    },
    {
      "id": 1371993,
      "adult": false
    },
    {
      "id": 140375,
      "adult": false
    },
    {
      "id": 1476675,
      "adult": false
    },
    {
      "id": 1499985,
      "adult": false
    },
    {
      "id": 158656,
      "adult": false
    },
    {
      "id": 11595,
      "adult": false
    },
    {
      "id": 161300,
      "adult": false
    },
    {
      "id": 781035,
      "adult": false
    },
    {
      "id": 162146,
      "adult": false
    },
    {
      "id": 182307,
      "adult": false
    },
    {
      "id": 1159518,
      "adult": false
    },
    {
      "id": 183921,
      "adult": false
    },
    {
      "id": 190018,
      "adult": false
    },
    {
      "id": 1527599,
      "adult": false
    },
    {
      "id": 1037113,
      "adult": false
    },
    {
      "id": 19613,
      "adult": false
    },
    {
      "id": 1963,
      "adult": false
    },
    {
      "id": 1159520,
      "adult": false
    },
    {
      "id": 200976,
      "adult": false
    },
    {
      "id": 994593,
      "adult": false
    },
    {
      "id": 200989,
      "adult": false
    },
    {
      "id": 256274,
      "adult": false
    },
    {
      "id": 2016,
      "adult": false
    },
    {
      "id": 208643,
      "adult": false
    },
    {
      "id": 1544779,
      "adult": false
    },
    {
      "id": 21797,
      "adult": false
    },
    {
      "id": 11596,
      "adult": false
    },
    {
      "id": 220445,
      "adult": false
    },
    {
      "id": 222463,
      "adult": false
    },
    {
      "id": 223477,
      "adult": false
    },
    {
      "id": 11597,
      "adult": false
    },
    {
      "id": 1544780,
      "adult": false
    },
    {
      "id": 1544781,
      "adult": false
    },
    {
      "id": 248611,
      "adult": false
    },
    {
      "id": 1159768,
      "adult": false
    },
    {
      "id": 1396142,
      "adult": false
    },
    {
      "id": 255250,
      "adult": false
    },
    {
      "id": 665783,
      "adult": false
    },
    {
      "id": 255982,
      "adult": false
    },
    {
      "id": 1159799,
      "adult": false
    },
    {
      "id": 25652,
      "adult": false
    },
    {
      "id": 1544782,
      "adult": false
    },
    {
      "id": 1544783,
      "adult": true
    },
    {
      "id": 11598,
      "adult": false
    },
    {
      "id": 257395,
      "adult": false
    }
  ],
  "page": 4,
  "total_pages": 111,
  "total_results": 11088
}