{
  "results": [
    {
      "id": 1836622,
      "adult": null
    },
    {
      "id": 1594757,
      "adult": null
    },
    {
      "id": 3234763,
      "adult": null
    },
    {
      "id": 1577456,
      "adult": false
    },
    {
      "id": 5682637,
      "adult": false
    },
    {
      "id": 5682638,
      "adult": false
    },
    {
      "id": 2179963,
      "adult": true
    },
    {
      "id": 1577452,
      "adult": false
    },
    {
      "id": 1426552,
      "adult": false
    },
    {
      "id": 5682639,
      "adult": false
    },
    {
      "id": 2163702,
      "adult": false
    },
    {
      "id": 2058144,
      "adult": false
    },
    {
      "id": 1817392,
      "adult": false
    },
    {
      "id": 5682640,
      "adult": true
    },
    {
      "id": 1817393,
      "adult": false
    },
    {
      "id": 4284150,
      "adult": null
    },
    {
      "id": 5682641,
      "adult": true
    },
    {
      "id": 5682642,
      "adult": false
    },
    {
      "id": 5682643,
      "adult": true
    },
    {
      "id": 5682644,
      "adult": true
    },
    {
      "id": 5682645,
      "adult": false
    },
    {
      "id": 5682646,
      "adult": true
    },
    {
      "id": 5682647,
      "adult": false
    },
    {
      "id": 72804,
      "adult": false
    },
    {
      "id": 72805,
      "adult": false
    },
    {
      "id": 5682648,
      "adult": true
    },
    {
      "id": 1117522,
      "adult": false
    },
    {
      "id": 5682649,
      "adult": true
    },
    {
      "id": 5435274,
      "adult": false
    },
    {
      "id": 5682650,
      "adult": true
    },
    {
      "id": 5682651,
      "adult": false
    },
    {
      "id": 5682652,
      "adult": false
    },
    {
      "id": 5682653,
      "adult": true
    },
    {
      "id": 5682654,
      "adult": true
    },
    {
      "id": 5682655,
      "adult": true
    },
    {
      "id": 582890,
      "adult": true
    },
    {
      "id": 5682656,
      "adult": true
    },
    {
      "id": 5682657,
      "adult": true
    },
    {
      "id": 5682658,
      "adult": true
    },
    {
      "id": 5682659,
      "adult": false
    },
    {
      "id": 5682660,
      "adult": false
    },
    {
      "id": 5682661,
      "adult": false
    },
    {
      "id": 224197,
      "adult": false
    },
    {
      "id": 5682662,
      "adult": false
    },
    {
      "id": 17273,
      "adult": false
    },
    {
      "id": 5682663,
      "adult": false
    },
    {
      "id": 64139,
      "adult": false
    },
    {
      "id": 1177583,
      "adult": false
    },
    {
      "id": 5682664,
      "adult": false
    },
    {
      "id": 5682665,
      "adult": false
    },
    {
      "id": 5682666,
      "adult": false
    },
    {
      "id": 5682667,
      "adult": false
    },
    {
      "id": 5682668,
      "adult": false
    },
    {
      "id": 5682669,
      "adult": false
    },
    {
      "id": 5682670,
      "adult": false
    },
    {
      "id": 1954831,
      "adult": false
    },
    {
      "id": 5682671,
      "adult": false
    },
    {
      "id": 5682672,
      "adult": false
    },
    {
      "id": 5682673,
      "adult": false
    },
    {
      "id": 5682674,
      "adult": false
    },
    {
      "id": 5682675,
      "adult": false
    },
    {
      "id": 5682676,
      "adult": true
    },
    {
      "id": 3552672,
      "adult": false
    },
    {
      "id": 5585018,
      "adult": false
    },
    {
      "id": 3629870,
      "adult": false
    },
    {
      "id": 5682677,
      "adult": false
    },
    {
      "id": 5682678,
      "adult": false
    },
    {
      "id": 24737,
      "adult": false
    },
    {
      "id": 5682679,
      "adult": false
    },
    {
      "id": 93366,
      "adult": true
    },
    {
      "id": 4666545,
      "adult": false
    },
    {
      "id": 1087701,
      "adult": false
    },
    {
      "id": 5682680,
      "adult": false
    },
    {
      "id": 5682681,
      "adult": false
    },
    {
      "id": 5682682,
      "adult": false
    },
    {
      "id": 5682683,
      "adult": false
    },
    {
      "id": 5682684,
      "adult": false
    },
    {
      "id": 2569417,
      "adult": false
    },
    {
      "id": 41888,
      "adult": false
    },
    {
      "id": 5345129,
      "adult": false
    },
    {
      "id": 5682685,
      "adult": false
    },
    {
      "id": 5682686,
      "adult": false
    },
    {
      "id": 2575347,
      "adult": false
    },
    {
      "id": 3684832,
      "adult": false
    },
    {
      "id": 5614677,
      "adult": false
    },
    {
      "id": 21736,
      "adult": false
    },
    {
      "id": 1367672,
      "adult": false
    },
    {
      "id": 4165970,
      "adult": null
    },
    {
      "id": 5409110,
      "adult": null
    },
    {
      "id": 5682687,
      "adult": false
    },
    {
      "id": 195575,
      "adult": false
    },
    {
      "id": 28399,
      "adult": false
    },
    {
      "id": 3523915,
      "adult": false
    },
    {
      "id": 3456395,
      "adult": false
    },
    {
      "id": 2343854,
      "adult": false
    },
    {
      "id": 2370718,
      "adult": false
    },
    {
      "id": 78083,
      "adult": false
    },
    {
      "id": 12295,
      "adult": false
    },
    {
      "id": 5682688,
      "adult": false
    },
    {
      "id": 5682689,
      "adult": false
    }
  ],
  "page": 1,
  "total_pages": 58,
  "total_results": 5702
}