{
  "results": [
    {
      "id": 5682968,
      "adult": false
    },
    {
      "id": 5682969,
      "adult": false
    },
    {
      "id": 5682970,
      "adult": false
    },
    {
      "id": 96958,
      "adult": false
    },
    {
      "id": 5682971,
      "adult": false
    },
    {
      "id": 1893908,
      "adult": true
    },
    {
      "id": 5682972,
      "adult": false
    },
    {
      "id": 5682973,
      "adult": false
    },
    {
      "id": 5682974,
      "adult": false
    },
    {
      "id": 5682975,
      "adult": false
    },
    {
      "id": 5682976,
      "adult": false
    },
    {
      "id": 5682977,
      "adult": false
    },
    {
      "id": 5682978,
      "adult": false
    },
    {
      "id": 5682979,
      "adult": false
    },
    {
      "id": 5682980,
      "adult": false
    },
    {
      "id": 5682981,
      "adult": false
    },
    {
      "id": 5682982,
      "adult": false
    },
    {
      "id": 5682983,
      "adult": false
    },
    {
      "id": 5682984,
      "adult": false
    },
    {
      "id": 5682985,
      "adult": false
    },
    {
      "id": 2550663,
      "adult": false
    },
    {
      "id": 2505976,
      "adult": false
    },
    {
      "id": 4569804,
      "adult": false
    },
    {
      "id": 4569808,
      "adult": false
    },
    {
      "id": 5682986,
      "adult": false
    },
    {
      "id": 1294159,
      "adult": false
    },
    {
      "id": 1176004,
      "adult": false
    },
    {
      "id": 130959,
      "adult": false
    },
    {
      "id": 5682987,
      "adult": false
    },
    {
      "id": 2556714,
      "adult": false
    },
    {
      "id": 5682988,
      "adult": false
    },
    {
      "id": 5682989,
      "adult": false
    },
    {
      "id": 5682990,
      "adult": false
    },
    {
      "id": 31061,
      "adult": false
    },
    {
      "id": 5682991,
      "adult": false
    },
    {
      "id": 5682992,
      "adult": false
    },
    {
      "id": 5682993,
      "adult": false
    },
    {
      "id": 3131747,
      "adult": false
    },
    {
      "id": 5682994,
      "adult": false
    },
    {
      "id": 1743475,
      "adult": false
    },
    {
      "id": 5682995,
      "adult": false
    },
    {
      "id": 5679627,
      "adult": false
    },
    {
      "id": 5682996,
      "adult": false
    },
    {
      "id": 5682997,
      "adult": false
    },
    {
      "id": 3663591,
      "adult": false
    },
    {
      "id": 1491863,
      "adult": false
    },
    {
      "id": 222343,
      "adult": false
    },
    {
      "id": 4895075,
      "adult": false
    },
    {
      "id": 929976,
      "adult": false
    },
    {
      "id": 5682998,
      "adult": false
    },
    {
      "id": 7446,
      "adult": false
    },
    {
      "id": 5682999,
      "adult": false
    },
    {
      "id": 5419882,
      "adult": false
    },
    {
      "id": 5683000,
      "adult": false
    },
    {
      "id": 63585,
      "adult": false
    },
    {
      "id": 1139048,
      "adult": false
    },
    {
      "id": 116423,
      "adult": false
    },
    {
      "id": 1166566,
      "adult": false
    },
    {
      "id": 1627402,
      "adult": false
    },
    {
      "id": 144487,
      "adult": false
    },
    {
      "id": 4898428,
      "adult": false
    },
    {
      "id": 3542047,
      "adult": false
    },
    {
      "id": 3522828,
      "adult": false
    },
    {
      "id": 4898246,
      "adult": false
    },
    {
      "id": 3041029,
      "adult": false
    },
    {
      "id": 1630004,
      "adult": false
    },
    {
      "id": 4924084,
      "adult": false
    },
    {
      "id": 1157918,
      "adult": false
    },
    {
      "id": 3064263,
      "adult": false
    },
    {
      "id": 1102078,
      "adult": false
    },
    {
      "id": 1733672,
      "adult": false
    },
    {
      "id": 3417341,
      "adult": false
    },
    {
      "id": 1427604,
      "adult": false
    },
    {
      "id": 1555922,
      "adult": false
    },
    {
      "id": 3397844,
      "adult": false
    },
    {
      "id": 1753,
      "adult": false
    },
    {
      "id": 70115,
      "adult": false
    },
    {
      "id": 12084,
      "adult": false
    },
    {
      "id": 12085,
      "adult": false
    },
    {
      "id": 13581,
      "adult": false
    },
    {
      "id": 1371398,
      "adult": false
    },
    {
      "id": 62711,
      "adult": false
    },
    {
      "id": 2532862,
      "adult": false
    },
    {
      "id": 2532854,
      "adult": false
    },
    {
      "id": 2532872,
      "adult": false
    },
    {
      "id": 3381491,
      "adult": false
    },
    {
      "id": 4693531,
      "adult": false
    },
    {
      "id": 58741,
      "adult": false
    },
    {
      "id": 209196,
      "adult": false
    },
    {
      "id": 5683001,
      "adult": false
    },
    {
      "id": 11386,
      "adult": false
    },
    {
      "id": 1739469,
      "adult": false
    },
    {
      "id": 18052,
      "adult": false
    },
    {
      "id": 1156272,
      "adult": false
    },
    {
      "id": 987249,
      "adult": false
    },
    {
      "id": 5683002,
      "adult": false
    },
    {
      "id": 70117,
      "adult": false
    },
    {
      "id": 4406377,
      "adult": false
    },
    {
      "id": 5683003,
      "adult": false
    },
    {
      "id": 1648134,
      "adult": false
    }
  ],
  "page": 7,
  "total_pages": 58,
  "total_results": 5702
}