{
  "results": [
    {
      "id": 20546,
      "adult": false
    },
    {
      "id": 5683004,
      "adult": false
    },
    {
      "id": 5683005,
      "adult": false
    },
    {
      "id": 5683006,
      "adult": false
    },
    {
      "id": 5683007,
      "adult": false
    },
    {
      "id": 5683008,
      "adult": false
    },
    {
      "id": 5546287,
      "adult": false
    },
    {
      "id": 3487004,
      "adult": false
    },
    {
      "id": 5683009,
      "adult": false
    },
    {
      "id": 5683010,
      "adult": false
    },
    {
      "id": 5683011,
      "adult": false
    },
    {
      "id": 5683012,
      "adult": false
    },
    {
      "id": 5683013,
      "adult": false
    },
    {
      "id": 5683014,
      "adult": false
    },
    {
      "id": 5683015,
      "adult": null
    },
    {
      "id": 5683016,
      "adult": false
    },
    {
      "id": 111743,
      "adult": false
    },
    {
      "id": 18598,
      "adult": false
    },
    {
      "id": 2565929,
      "adult": false
    },
    {
      "id": 5683017,
      "adult": false
    },
    {
      "id": 1517710,
      "adult": false
    },
    {
      "id": 5683018,
      "adult": false
    },
    {
      "id": 5683019,
      "adult": false
    },
    {
      "id": 5683020,
      "adult": false
    },
    {
      "id": 1231115,
      "adult": false
    },
    {
      "id": 1198603,
      "adult": false
    },
    {
      "id": 5683021,
      "adult": false
    },
    {
      "id": 60874,
      "adult": false
    },
    {
      "id": 5683022,
      "adult": false
    },
    {
      "id": 5683023,
      "adult": false
    },
    {
      "id": 5683024,
      "adult": false
    },
    {
      "id": 5683025,
      "adult": false
    },
    {
      "id": 5683026,
      "adult": false
    },
    {
      "id": 5683027,
      "adult": false
    },
    {
      "id": 5683028,
      "adult": false
    },
    {
      "id": 583066,
      "adult": false
    },
    {
      "id": 4069230,
      "adult": false
    },
    {
      "id": 2128414,
      "adult": false
    },
    {
      "id": 5683029,
      "adult": false
    },
    {
      "id": 5683030,
      "adult": false
    },
    {
      "id": 1604716,
      "adult": false
    },
    {
      "id": 5683031,
      "adult": false
    },
    {
      "id": 5683032,
      "adult": false
    },
    {
      "id": 5683033,
      "adult": false
    },
    {
      "id": 2208473,
      "adult": false
    },
    {
      "id": 5683034,
      "adult": false
    },
    {
      "id": 57823,
      "adult": false
    },
    {
      "id": 70738,
      "adult": false
    },
    {
      "id": 5683035,
      "adult": false
    },
    {
      "id": 5683036,
      "adult": false
    },
    {
      "id": 5683037,
      "adult": false
    },
    {
      "id": 5683038,
      "adult": false
    },
    {
      "id": 5683039,
      "adult": false
    },
    {
      "id": 5683040,
      "adult": false
    },
    {
      "id": 5683041,
      "adult": false
    },
    {
      "id": 5683042,
      "adult": false
    },
    {
      "id": 5683043,
      "adult": false
    },
    {
      "id": 5683044,
      "adult": false
    },
    {
      "id": 5683045,
      "adult": false
    },
    {
      "id": 5683046,
      "adult": false
    },
    {
      "id": 5683047,
      "adult": false
    },
    {
      "id": 5683048,
      "adult": false
    },
    {
      "id": 5683049,
      "adult": false
    },
    {
      "id": 5683050,
      "adult": false
    },
    {
      "id": 5683051,
      "adult": false
    },
    {
      "id": 5683052,
      "adult": false
    },
    {
      "id": 5683053,
      "adult": false
    },
    {
      "id": 5683054,
      "adult": false
    },
    {
      "id": 17140,
      "adult": false
    },
    {
      "id": 5683055,
      "adult": false
    },
    {
      "id": 5683056,
      "adult": false
    },
    {
      "id": 5683057,
      "adult": false
    },
    {
      "id": 5683058,
      "adult": false
    },
    {
      "id": 3148891,
      "adult": false
    },
    {
      "id": 2525701,
      "adult": false
    },
    {
      "id": 15738,
      "adult": false
    },
    {
      "id": 2246,
      "adult": false
    },
    {
      "id": 1188567,
      "adult": false
    },
    {
      "id": 176763,
      "adult": false
    },
    {
      "id": 155081,
      "adult": false
    },
    {
      "id": 21673,
      "adult": false
    },
    {
      "id": 70697,
      "adult": false
    },
    {
      "id": 6718,
      "adult": false
    },
    {
      "id": 993774,
      "adult": false
    },
    {
      "id": 5088231,
      "adult": false
    },
    {
      "id": 5683059,
      "adult": false
    },
    {
      "id": 1615011,
      "adult": false
    },
    {
      "id": 2670948,
      "adult": false
    },
    {
      "id": 2334341,
      "adult": false
    },
    {
      "id": 5147080,
      "adult": false
    },
    {
      "id": 1297728,
      "adult": false
    },
    {
      "id": 4656392,
      "adult": false
    },
    {
      "id": 559477,
      "adult": false
    },
    {
      "id": 1192817,
      "adult": false
    },
    {
      "id": 3040650,
      "adult": false
    },
    {
      "id": 70691,
      "adult": false
    },
    {
      "id": 44916,
      "adult": false
    },
    {
      "id": 3054460,
      "adult": false
    },
    {
      "id": 104632,
      "adult": false
    },
    {
      "id": 1137982,
      "adult": true
    }
  ],
  "page": 8,
  "total_pages": 58,
  "total_results": 5702
}