{
  "results": [
    {
      "id": 5682741,
      "adult": false
    },
    {
      "id": 1249,
      "adult": false
    },
    {
      "id": 34715,
      "adult": false
    },
    {
      "id": 5682742,
      "adult": true
    },
    {
      "id": 557323,
      "adult": false
    },
    {
      "id": 5682743,
      "adult": false
    },
    {
      "id": 5682744,
      "adult": false
    },
    {
      "id": 5682745,
      "adult": false
    },
    {
      "id": 1370986,
      "adult": false
    },
    {
      "id": 1090733,
      "adult": false
    },
    {
      "id": 1128902,
      "adult": false
    },
    {
      "id": 5682746,
      "adult": false
    },
    {
      "id": 2708971,
      "adult": false
    },
    {
      "id": 55119,
      "adult": false
    },
    {
      "id": 1374676,
      "adult": false
    },
    {
      "id": 2489738,
      "adult": false
    },
    {
      "id": 1371297,
      "adult": false
    },
    {
      "id": 2045997,
      "adult": false
    },
    {
      "id": 1418769,
      "adult": false
    },
    {
      "id": 5682747,
      "adult": false
    },
    {
      "id": 1526536,
      "adult": false
    },
    {
      "id": 1342189,
      "adult": false
    },
    {
      "id": 5682748,
      "adult": false
    },
    {
      "id": 5682749,
      "adult": false
    },
    {
      "id": 1416686,
      "adult": false
    },
    {
      "id": 5682750,
      "adult": false
    },
    {
      "id": 977941,
      "adult": false
    },
    {
      "id": 1347018,
      "adult": false
    },
    {
      "id": 3340121,
      "adult": false
    },
    {
      "id": 5682751,
      "adult": false
    },
    {
      "id": 4509967,
      "adult": false
    },
    {
      "id": 928414,
      "adult": false
    },
    {
      "id": 5682752,
      "adult": false
    },
    {
      "id": 5676104,
      "adult": null
    },
    {
      "id": 5676105,
      "adult": null
    },
    {
      "id": 5676107,
      "adult": null
    },
    {
      "id": 5676092,
      "adult": null
    },
    {
      "id": 5676093,
      "adult": null
    },
    {
      "id": 5676103,
      "adult": null
    },
    {
      "id": 5676110,
      "adult": null
    },
    {
      "id": 5676070,
      "adult": null
    },
    {
      "id": 5682753,
      "adult": false
    },
    {
      "id": 5682754,
      "adult": false
    },
    {
      "id": 5682755,
      "adult": false
    },
    {
      "id": 5682756,
      "adult": false
    },
    {
      "id": 5682757,
      "adult": false
    },
    {
      "id": 5682758,
      "adult": false
    },
    {
      "id": 5682759,
      "adult": false
    },
    {
      "id": 5682760,
      "adult": false
    },
    {
      "id": 2643772,
      "adult": false
    },
    {
      "id": 5682761,
      "adult": false
    },
    {
      "id": 5682762,
      "adult": false
    },
    {
      "id": 5682763,
      "adult": false
    },
    {
      "id": 5682764,
      "adult": false
    },
    {
      "id": 5682765,
      "adult": false
    },
    {
      "id": 5682766,
      "adult": false
    },
    {
      "id": 5682767,
      "adult": false
    },
    {
      "id": 5682768,
      "adult": false
    },
    {
      "id": 5682769,
      "adult": false
    },
    {
      "id": 5682770,
      "adult": false
    },
    {
      "id": 5682771,
      "adult": false
    },
    {
      "id": 5682772,
      "adult": false
    },
    {
      "id": 5682773,
      "adult": false
    },
    {
      "id": 5682774,
      "adult": false
    },
    {
      "id": 5682775,
      "adult": false
    },
    {
      "id": 1185786,
      "adult": false
    },
    {
      "id": 5682776,
      "adult": false
    },
    {
      "id": 5682777,
      "adult": false
    },
    {
      "id": 4356475,
      "adult": false
    },
    {
      "id": 5682778,
      "adult": false
    },
    {
      "id": 5682779,
      "adult": false
    },
    {
      "id": 5682780,
      "adult": false
    },
    {
      "id": 5682781,
      "adult": false
    },
    {
      "id": 5682782,
      "adult": false
    },
    {
      "id": 5682783,
      "adult": false
    },
    {
      "id": 5682784,
      "adult": false
    },
    {
      "id": 3159951,
      "adult": false
    },
    {
      "id": 3159948,
      "adult": false
    },
    {
      "id": 5682785,
      "adult": false
    },
    {
      "id": 3157265,
      "adult": false
    },
    {
      "id": 1448505,
      "adult": false
    },
    {
      "id": 5682786,
      "adult": false
    },
    {
      "id": 3159946,
      "adult": false
    },
    {
      "id": 3312218,
      "adult": false
    },
    {
      "id": 3110091,
      "adult": false
    },
    {
      "id": 5682787,
      "adult": false
    },
    {
      "id": 5174261,
      "adult": false
    },
    {
      "id": 2495794,
      "adult": false
    },
    {
      "id": 5682788,
      "adult": false
    },
    {
      "id": 3159943,
      "adult": false
    },
    {
      "id": 5679981,
      "adult": false
    },
    {
      "id": 3159942,
      "adult": false
    },
    {
      "id": 5682789,
      "adult": false
    },
    {
      "id": 1795453,
      "adult": false
    },
    {
      "id": 4961462,
      "adult": false
    },
    {
      "id": 5682790,
      "adult": false
    },
    {
      "id": 5682791,
      "adult": false
    },
    {
      "id": 5682792,
      "adult": false
    },
    {
      "id": 5682793,
      "adult": false
    },
    {
      "id": 5682794,
      "adult": false
    }
  ],
  "page": 3,
  "total_pages": 58,
  "total_results": 5702
}