{
  "results": [
    {
      "id": 5683060,
      "adult": false
    },
    {
      "id": 50,
      "adult": false
    },
    {
      "id": 235416,
      "adult": false
    },
    {
      "id": 5683061,
      "adult": false
    },
    {
      "id": 75175,
      "adult": false
    },
    {
      "id": 543261,
      "adult": false
    },
    {
      "id": 1133349,
      "adult": false
    },
    {
      "id": 5683062,
      "adult": false
    },
    {
      "id": 5683063,
      "adult": false
    },
    {
      "id": 1174138,
      "adult": true
    },
    {
      "id": 5683064,
      "adult": false
    },
    {
      "id": 1223786,
      "adult": false
    },
    {
      "id": 1417352,
      "adult": false
    },
    {
      "id": 1189005,
      "adult": false
    },
    {
      "id": 5683065,
      "adult": false
    },
    {
      "id": 26657,
      "adult": false
    },
    {
      "id": 17354,
      "adult": false
    },
    {
      "id": 5683066,
      "adult": false
    },
    {
      "id": 5683067,
      "adult": false
    },
    {
      "id": 5683068,
      "adult": false
    },
    {
      "id": 5683069,
      "adult": false
    },
    {
      "id": 5683070,
      "adult": false
    },
    {
      "id": 3246049,
      "adult": false
    },
    {
      "id": 5683071,
      "adult": false
    },
    {
      "id": 5683072,
      "adult": false
    },
    {
      "id": 1286613,
      "adult": false
    },
    {
      "id": 5683073,
      "adult": false
    },
    {
      "id": 77319,
      "adult": false
    },
    {
      "id": 2222969,
      "adult": false
    },
    {
      "id": 3310879,
      "adult": false
    },
    {
      "id": 4047059,
      "adult": false
    },
    {
      "id": 4789521,
      "adult": false
    },
    {
      "id": 1293675,
      "adult": false
    },
    {
      "id": 4790975,
      "adult": false
    },
    {
      "id": 4791025,
      "adult": false
    },
    {
      "id": 1175216,
      "adult": true
    },
    {
      "id": 5683074,
      "adult": false
    },
    {
      "id": 5683075,
      "adult": false
    },
    {
      "id": 1794453,
      "adult": false
    },
    {
      "id": 3958072,
      "adult": false
    },
    {
      "id": 5683076,
      "adult": false
    },
    {
      "id": 1057982,
      "adult": false
    },
    {
      "id": 3325406,
      "adult": false
    },
    {
      "id": 4865885,
      "adult": false
    },
    {
      "id": 1660103,
      "adult": false
    },
    {
      "id": 2360732,
      "adult": false
    },
    {
      "id": 1243105,
      "adult": true
    },
    {
      "id": 1923171,
      "adult": false
    },
    {
      "id": 2552256,
      "adult": false
    },
    {
      "id": 5683077,
      "adult": false
    },
    {
      "id": 5683078,
      "adult": false
    },
    {
      "id": 5683079,
      "adult": false
    },
    {
      "id": 5683080,
      "adult": false
    },
    {
      "id": 5683081,
      "adult": false
    },
    {
      "id": 5683082,
      "adult": false
    },
    {
      "id": 3611175,
      "adult": false
    },
    {
      "id": 5683083,
      "adult": false
    },
    {
      "id": 3611177,
      "adult": false
    },
    {
      "id": 5683084,
      "adult": false
    },
    {
      "id": 3041078,
      "adult": false
    },
    {
      "id": 5139858,
      "adult": false
    },
    {
      "id": 5683085,
      "adult": false
    },
    {
      "id": 125825,
      "adult": false
    },
    {
      "id": 1599335,
      "adult": true
    },
    {
      "id": 4981584,
      "adult": false
    },
    {
      "id": 4039520,
      "adult": false
    },
    {
      "id": 4927389,
      "adult": false
    },
    {
      "id": 5683086,
      "adult": false
    },
    {
      "id": 94609,
      "adult": false
    },
    {
      "id": 25448,
      "adult": false
    },
    {
      "id": 85718,
      "adult": false
    },
    {
      "id": 76945,
      "adult": false
    },
    {
      "id": 55581,
      "adult": false
    },
    {
      "id": 4080222,
      "adult": false
    },
    {
      "id": 1064110,
      "adult": false
    },
    {
      "id": 1829174,
      "adult": true
    },
    {
      "id": 33394,
      "adult": false
    },
    {
      "id": 1597386,
      "adult": false
    },
    {
      "id": 4729810,
      "adult": null
    },
    {
      "id": 5107886,
      "adult": false
    },
    {
      "id": 2972695,
      "adult": false
    },
    {
      "id": 2972693,
      "adult": false
    },
    {
      "id": 43772,
      "adult": false
    },
    {
      "id": 5683087,
      "adult": false
    },
    {
      "id": 1230206,
      "adult": false
    },
    {
      "id": 1236597,
      "adult": false
    },
    {
      "id": 5683088,
      "adult": false
    },
    {
      "id": 5683089,
      "adult": false
    },
    {
      "id": 5683090,
      "adult": false
    },
    {
      "id": 3402801,
      "adult": false
    },
    {
      "id": 2972704,
      "adult": false
    },
    {
      "id": 1230211,
      "adult": false
    },
    {
      "id": 2972702,
      "adult": null
    },
    {
      "id": 5683091,
      "adult": false
    },
    {
      "id": 5683092,
      "adult": false
    },
    {
      "id": 36586,
      "adult": false
    },
    {
      "id": 5683093,
      "adult": false
    },
    {
      "id": 5683094,
      "adult": false
    },
    {
      "id": 5683095,
      "adult": false
    },
    {
      "id": 5683096,
      "adult": true
    }
  ],
  "page": 9,
  "total_pages": 58,
  "total_results": 5702
}