{
  "results": [
    {
      "id": 173269,
      "adult": false
    },
    {
      "id": 191198,
      "adult": false
    },
    {
      "id": 5683097,
      "adult": false
    },
    {
      "id": 207150,
      "adult": false
    },
    {
      "id": 36803,
      "adult": false
    },
    {
      "id": 100261,
      "adult": false
    },
    {
      "id": 2972678,
      "adult": false
    },
    {
      "id": 1736408,
      "adult": true
    },
    {
      "id": 2972710,
      "adult": false
    },
    {
      "id": 2972711,
      "adult": false
    },
    {
      "id": 2972701,
      "adult": false
    },
    {
      "id": 1329864,
      "adult": false
    },
    {
      "id": 5683098,
      "adult": false
    },
    {
      "id": 5215592,
      "adult": false
    },
    {
      "id": 1326668,
      "adult": true
    },
    {
      "id": 5683099,
      "adult": false
    },
    {
      "id": 147404,
      "adult": false
    },
    {
      "id": 2456110,
      "adult": false
    },
    {
      "id": 5683100,
      "adult": false
    },
    {
      "id": 2646845,
      "adult": false
    },
    {
      "id": 5683101,
      "adult": false
    },
    {
      "id": 5683102,
      "adult": false
    },
    {
      "id": 29861,
      "adult": false
    },
    {
      "id": 5329439,
      "adult": null
    },
    {
      "id": 2098262,
      "adult": true
    },
    {
      "id": 5683103,
      "adult": false
    },
    {
      "id": 1381537,
      "adult": false
    },
    {
      "id": 1187268,
      "adult": false
    },
    {
      "id": 21060,
      "adult": false
    },
    {
      "id": 108753,
      "adult": false
    },
    {
      "id": 2877001,
      "adult": false
    },
    {
      "id": 5189323,
      "adult": null
    },
    {
      "id": 1327651,
      "adult": false
    },
    {
      "id": 59244,
      "adult": false
    },
    {
      "id": 5683104,
      "adult": false
    },
    {
      "id": 33203,
      "adult": false
    },
    {
      "id": 5683105,
      "adult": false
    },
    {
      "id": 62338,
      "adult": false
    },
    {
      "id": 1188626,
      "adult": false
    },
    {
      "id": 1579904,
      "adult": false
    },
    {
      "id": 1190219,
      "adult": false
    },
    {
      "id": 5683106,
      "adult": false
    },
    {
      "id": 5670744,
      "adult": false
    },
    {
      "id": 3369320,
      "adult": false
    },
    {
      "id": 1353076,
      "adult": false
    },
    {
      "id": 5683107,
      "adult": false
    },
    {
      "id": 5683108,
      "adult": false
    },
    {
      "id": 2266228,
      "adult": false
    },
    {
      "id": 1923229,
      "adult": false
    },
    {
      "id": 2098684,
      "adult": false
    },
    {
      "id": 2642349,
      "adult": null
    },
    {
      "id": 5683109,
      "adult": false
    },
    {
      "id": 2686423,
      "adult": false
    },
    {
      "id": 5683110,
      "adult": false
    },
    {
      "id": 4575452,
      "adult": null
    },
    {
      "id": 5683111,
      "adult": false
    },
    {
      "id": 5683112,
      "adult": false
    },
    {
      "id": 5683113,
      "adult": false
    },
    {
      "id": 2646826,
      "adult": false
    },
    {
      "id": 1901644,
      "adult": false
    },
    {
      "id": 37935,
      "adult": false
    },
    {
      "id": 5683114,
      "adult": false
    },
    {
      "id": 1009740,
      "adult": false
    },
    {
      "id": 5683115,
      "adult": false
    },
    {
      "id": 5713,
      "adult": false
    },
    {
      "id": 1745178,
      "adult": false
    },
    {
      "id": 2599733,
      "adult": false
    },
    {
      "id": 3093671,
      "adult": null
    },
    {
      "id": 5349602,
      "adult": false
    },
    {
      "id": 5683116,
      "adult": false
    },
    {
      "id": 1749569,
      "adult": false
    },
    {
      "id": 17606,
      "adult": false
    },
    {
      "id": 5683117,
      "adult": false
    },
    {
      "id": 5275096,
      "adult": null
    },
    {
      "id": 1108724,
      "adult": false
    },
    {
      "id": 5213036,
      "adult": null
    },
    {
      "id": 1085178,
      "adult": false
    },
    {
      "id": 5683118,
      "adult": false
    },
    {
      "id": 5683119,
      "adult": false
    },
    {
      "id": 5683120,
      "adult": false
    },
    {
      "id": 5683121,
      "adult": false
    },
    {
      "id": 5683122,
      "adult": false
    },
    {
      "id": 5683123,
      "adult": false
    },
    {
      "id": 5683124,
      "adult": false
    },
    {
      "id": 5683125,
      "adult": false
    },
    {
      "id": 4166747,
      "adult": false
    },
    {
      "id": 554560,
      "adult": false
    },
    {
      "id": 4849577,
      "adult": false
    },
    {
      "id": 1827886,
      "adult": false
    },
    {
      "id": 5683126,
      "adult": false
    },
    {
      "id": 2221363,
      "adult": false
    },
    {
      "id": 57028,
      "adult": false
    },
    {
      "id": 5683127,
      "adult": false
    },
    {
      "id": 5683128,
      "adult": false
    },
    {
      "id": 5683129,
      "adult": false
    },
    {
      "id": 5683130,
      "adult": false
    },
    {
      "id": 5683131,
      "adult": false
    },
    {
      "id": 16285,
      "adult": false
    },
    {
      "id": 3817861,
      "adult": false
    },
    {
      "id": 4195381,
      "adult": false
    }
  ],
  "page": 10,
  "total_pages": 58,
  "total_results": 5702
}