{
  "results": [
    {
      "id": 5682690,
      "adult": false
    },
    {
      "id": 5682691,
      "adult": false
    },
    {
      "id": 5682692,
      "adult": false
    },
    {
      "id": 5682693,
      "adult": false
    },
    {
      "id": 5682694,
      "adult": false
    },
    {
      "id": 5682695,
      "adult": false
    },
    {
      "id": 5682696,
      "adult": false
    },
    {
      "id": 5682697,
      "adult": false
    },
    {
      "id": 5682698,
      "adult": false
    },
    {
      "id": 5682699,
      "adult": false
    },
    {
      "id": 5682700,
      "adult": false
    },
    {
      "id": 5682701,
      "adult": false
    },
    {
      "id": 5682702,
      "adult": false
    },
    {
      "id": 2362044,
      "adult": false
    },
    {
      "id": 5682703,
      "adult": false
    },
    {
      "id": 1932296,
      "adult": false
    },
    {
      "id": 1932178,
      "adult": false
    },
    {
      "id": 154865,
      "adult": false
    },
    {
      "id": 5682704,
      "adult": false
    },
    {
      "id": 5682705,
      "adult": false
    },
    {
      "id": 5682706,
      "adult": false
    },
    {
      "id": 5682707,
      "adult": false
    },
    {
      "id": 5682708,
      "adult": false
    },
    {
      "id": 2423,
      "adult": false
    },
    {
      "id": 5682709,
      "adult": false
    },
    {
      "id": 5682710,
      "adult": false
    },
    {
      "id": 5099355,
      "adult": null
    },
    {
      "id": 5269030,
      "adult": null
    },
    {
      "id": 1222107,
      "adult": false
    },
    {
      "id": 40271,
      "adult": false
    },
    {
      "id": 977543,
      "adult": false
    },
    {
      "id": 3177148,
      "adult": false
    },
    {
      "id": 4299627,
      "adult": false
    },
    {
      "id": 5682711,
      "adult": false
    },
    {
      "id": 5682712,
      "adult": false
    },
    {
      "id": 5682713,
      "adult": false
    },
    {
      "id": 5682714,
      "adult": false
    },
    {
      "id": 220448,
      "adult": false
    },
    {
      "id": 5682715,
      "adult": false
    },
    {
      "id": 5682716,
      "adult": false
    },
    {
      "id": 5682717,
      "adult": false
    },
    {
      "id": 5682718,
      "adult": false
    },
    {
      "id": 5682719,
      "adult": false
    },
    {
      "id": 4651888,
      "adult": true
    },
    {
      "id": 4651889,
      "adult": true
    },
    {
      "id": 4651890,
      "adult": true
    },
    {
      "id": 5682720,
      "adult": false
    },
    {
      "id": 5682721,
      "adult": false
    },
    {
      "id": 5682722,
      "adult": false
    },
    {
      "id": 5682723,
      "adult": false
    },
    {
      "id": 4887370,
      "adult": false
    },
    {
      "id": 5682724,
      "adult": false
    },
    {
      "id": 4887372,
      "adult": false
    },
    {
      "id": 5682725,
      "adult": false
    },
    {
      "id": 4887374,
      "adult": false
    },
    {
      "id": 4887378,
      "adult": false
    },
    {
      "id": 4887381,
      "adult": false
    },
    {
      "id": 5682726,
      "adult": false
    },
    {
      "id": 144081,
      "adult": false
    },
    {
      "id": 3796440,
      "adult": false
    },
    {
      "id": 5682727,
      "adult": false
    },
    {
      "id": 5682728,
      "adult": false
    },
    {
      "id": 10939,
      "adult": false
    },
    {
      "id": 5682729,
      "adult": false
    },
    {
      "id": 1871887,
      "adult": false
    },
    {
      "id": 2478372,
      "adult": false
    },
    {
      "id": 5546549,
      "adult": true
    },
    {
      "id": 2746473,
      "adult": false
    },
    {
      "id": 5682730,
      "adult": false
    },
    {
      "id": 5682731,
      "adult": false
    },
    {
      "id": 1294510,
      "adult": false
    },
    {
      "id": 2926221,
      "adult": false
    },
    {
      "id": 2300917,
      "adult": false
    },
    {
      "id": 5682732,
      "adult": false
    },
    {
      "id": 5682733,
      "adult": false
    },
    {
      "id": 557418,
      "adult": false
    },
    {
      "id": 5682734,
      "adult": false
    },
    {
      "id": 5682735,
      "adult": false
    },
    {
      "id": 3011652,
      "adult": false
    },
    {
      "id": 161731,
      "adult": false
    },
    {
      "id": 5682736,
      "adult": false
    },
    {
      "id": 2222088,
      "adult": false
    },
    {
      "id": 5682737,
      "adult": false
    },
    {
      "id": 1607672,
      "adult": false
    },
    {
      "id": 96172,
      "adult": false
    },
    {
      "id": 3358840,
      "adult": false
    },
    {
      "id": 5682738,
      "adult": false
    },
    {
      "id": 134810,
      "adult": false
    },
    {
      "id": 5682739,
      "adult": false
    },
    {
      "id": 142686,
      "adult": false
    },
    {
      "id": 5682740,
      "adult": false
    },
    {
      "id": 1247264,
      "adult": false
    },
    {
      "id": 1759957,
      "adult": false
    },
    {
      "id": 1661846,
      "adult": false
    },
    {
      "id": 1475097,
      "adult": false
    },
    {
      "id": 2934490,
      "adult": false
    },
    {
      "id": 1737891,
      "adult": false
    },
    {
      "id": 2352840,
      "adult": false
    },
    {
      "id": 4103589,
      "adult": false
    },
    {
      "id": 1364630,
      "adult": false
    }
  ],
  "page": 2,
  "total_pages": 58,
  "total_results": 5702
}