{
  "results": [
    {
      "id": 4717239,
      "adult": false
    },
    {
      "id": 5682867,
      "adult": false
    },
    {
      "id": 1183549,
      "adult": false
    },
    {
      "id": 39255,
      "adult": false
    },
    {
      "id": 4097078,
      "adult": false
    },
    {
      "id": 5671021,
      "adult": null
    },
    {
      "id": 2571217,
      "adult": false
    },
    {
      "id": 5682868,
      "adult": false
    },
    {
      "id": 17064,
      "adult": false
    },
    {
      "id": 1304661,
      "adult": false
    },
    {
      "id": 1304662,
      "adult": false
    },
    {
      "id": 5682869,
      "adult": false
    },
    {
      "id": 114253,
      "adult": false
    },
    {
      "id": 1473776,
      "adult": false
    },
    {
      "id": 16359,
      "adult": false
    },
    {
      "id": 145093,
      "adult": false
    },
    {
      "id": 968632,
      "adult": false
    },
    {
      "id": 5682870,
      "adult": false
    },
    {
      "id": 5680632,
      "adult": null
    },
    {
      "id": 5682871,
      "adult": false
    },
    {
      "id": 5682872,
      "adult": false
    },
    {
      "id": 122455,
      "adult": false
    },
    {
      "id": 5682873,
      "adult": false
    },
    {
      "id": 1474332,
      "adult": false
    },
    {
      "id": 2162002,
      "adult": false
    },
    {
      "id": 1094761,
      "adult": false
    },
    {
      "id": 1683307,
      "adult": false
    },
    {
      "id": 5682874,
      "adult": false
    },
    {
      "id": 5682875,
      "adult": false
    },
    {
      "id": 5010,
      "adult": false
    },
    {
      "id": 71659,
      "adult": false
    },
    {
      "id": 35021,
      "adult": false
    },
    {
      "id": 70038,
      "adult": false
    },
    {
      "id": 180486,
      "adult": false
    },
    {
      "id": 5682876,
      "adult": false
    },
    {
      "id": 5682877,
      "adult": false
    },
    {
      "id": 1327,
      "adult": false
    },
    {
      "id": 84080,
      "adult": false
    },
    {
      "id": 58897,
      "adult": false
    },
    {
      "id": 33183,
      "adult": false
    },
    {
      "id": 934181,
      "adult": false
    },
    {
      "id": 18910,
      "adult": false
    },
    {
      "id": 5682878,
      "adult": false
    },
    {
      "id": 21075,
      "adult": false
    },
    {
      "id": 38937,
      "adult": false
    },
    {
      "id": 4524084,
      "adult": false
    },
    {
      "id": 20773,
      "adult": false
    },
    {
      "id": 2328652,
      "adult": false
    },
    {
      "id": 5682879,
      "adult": false
    },
    {
      "id": 109813,
      "adult": false
    },
    {
      "id": 5682880,
      "adult": false
    },
    {
      "id": 3939318,
      "adult": false
    },
    {
      "id": 5682881,
      "adult": false
    },
    {
      "id": 5682882,
      "adult": false
    },
    {
      "id": 2338811,
      "adult": false
    },
    {
      "id": 5682883,
      "adult": false
    },
    {
      "id": 4918156,
      "adult": false
    },
    {
      "id": 1062028,
      "adult": false
    },
    {
      "id": 5682884,
      "adult": null
    },
    {
      "id": 5682885,
      "adult": false
    },
    {
      "id": 5682886,
      "adult": false
    },
    {
      "id": 5682887,
      "adult": false
    },
    {
      "id": 5682888,
      "adult": false
    },
    {
      "id": 5682889,
      "adult": false
    },
    {
      "id": 5682890,
      "adult": false
    },
    {
      "id": 5682891,
      "adult": false
    },
    {
      "id": 5682892,
      "adult": false
    },
    {
      "id": 5682893,
      "adult": false
    },
    {
      "id": 2836954,
      "adult": false
    },
    {
      "id": 5682894,
      "adult": false
    },
    {
      "id": 5682895,
      "adult": false
    },
    {
      "id": 5682896,
      "adult": false
    },
    {
      "id": 5682897,
      "adult": false
    },
    {
      "id": 1667126,
      "adult": true
    },
    {
      "id": 5682898,
      "adult": false
    },
    {
      "id": 4749968,
      "adult": false
    },
    {
      "id": 3463330,
      "adult": true
    },
    {
      "id": 4750132,
      "adult": false
    },
    {
      "id": 5567879,
      "adult": false
    },
    {
      "id": 5567904,
      "adult": false
    },
    {
      "id": 5567915,
      "adult": false
    },
    {
      "id": 5567922,
      "adult": false
    },
    {
      "id": 5682899,
      "adult": false
    },
    {
      "id": 3697793,
      "adult": false
    },
    {
      "id": 5567933,
      "adult": false
    },
    {
      "id": 5567938,
      "adult": false
    },
    {
      "id": 5567943,
      "adult": false
    },
    {
      "id": 70051,
      "adult": false
    },
    {
      "id": 130664,
      "adult": false
    },
    {
      "id": 5131428,
      "adult": false
    },
    {
      "id": 5682900,
      "adult": false
    },
    {
      "id": 5682901,
      "adult": false
    },
    {
      "id": 105688,
      "adult": false
    },
    {
      "id": 5682902,
      "adult": false
    },
    {
      "id": 28904,
      "adult": false
    },
    {
      "id": 1392461,
      "adult": false
    },
    {
      "id": 29096,
      "adult": false
    },
    {
      "id": 1699540,
      "adult": false
    },
    {
      "id": 5682903,
      "adult": false
    },
    {
      "id": 55751,
      "adult": false
    }
  ],
  "page": 5,
  "total_pages": 58,
  "total_results": 5702
}