{
  "results": [
    {
      "id": 5682795,
      "adult": false
    },
    {
      "id": 5682796,
      "adult": false
    },
    {
      "id": 5682797,
      "adult": false
    },
    {
      "id": 5682798,
      "adult": false
    },
    {
      "id": 5682799,
      "adult": false
    },
    {
      "id": 5682800,
      "adult": false
    },
    {
      "id": 5682801,
      "adult": false
    },
    {
      "id": 5682802,
      "adult": false
    },
    {
      "id": 5682803,
      "adult": false
    },
    {
      "id": 5682804,
      "adult": false
    },
    {
      "id": 5682805,
      "adult": false
    },
    {
      "id": 5682806,
      "adult": false
    },
    {
      "id": 5682807,
      "adult": false
    },
    {
      "id": 5682808,
      "adult": false
    },
    {
      "id": 1521445,
      "adult": false
    },
    {
      "id": 227565,
      "adult": false
    },
    {
      "id": 1275776,
      "adult": false
    },
    {
      "id": 5682809,
      "adult": false
    },
    {
      "id": 5682810,
      "adult": false
    },
    {
      "id": 5682811,
      "adult": false
    },
    {
      "id": 5682812,
      "adult": false
    },
    {
      "id": 5682813,
      "adult": false
    },
    {
      "id": 1655506,
      "adult": false
    },
    {
      "id": 10722,
      "adult": false
    },
    {
      "id": 5682814,
      "adult": false
    },
    {
      "id": 3090384,
      "adult": false
    },
    {
      "id": 5681365,
      "adult": false
    },
    {
      "id": 5682815,
      "adult": false
    },
    {
      "id": 21662,
      "adult": false
    },
    {
      "id": 58547,
      "adult": false
    },
    {
      "id": 5682816,
      "adult": false
    },
    {
      "id": 1814510,
      "adult": false
    },
    {
      "id": 5682817,
      "adult": false
    },
    {
      "id": 572295,
      "adult": false
    },
    {
      "id": 5682818,
      "adult": false
    },
    {
      "id": 5682819,
      "adult": false
    },
    {
      "id": 5682820,
      "adult": false
    },
    {
      "id": 5682821,
      "adult": false
    },
    {
      "id": 5682822,
      "adult": false
    },
    {
      "id": 5682823,
      "adult": false
    },
    {
      "id": 2493847,
      "adult": false
    },
    {
      "id": 5682824,
      "adult": false
    },
    {
      "id": 5223218,
      "adult": false
    },
    {
      "id": 5682825,
      "adult": false
    },
    {
      "id": 5682826,
      "adult": false
    },
    {
      "id": 4077880,
      "adult": false
    },
    {
      "id": 2265584,
      "adult": false
    },
    {
      "id": 5682827,
      "adult": false
    },
    {
      "id": 4441748,
      "adult": false
    },
    {
      "id": 5682828,
      "adult": false
    },
    {
      "id": 3790312,
      "adult": false
    },
    {
      "id": 5682829,
      "adult": false
    },
    {
      "id": 5682830,
      "adult": false
    },
    {
      "id": 5682831,
      "adult": false
    },
    {
      "id": 5682832,
      "adult": false
    },
    {
      "id": 5682833,
      "adult": false
    },
    {
      "id": 5682834,
      "adult": false
    },
    {
      "id": 5682835,
      "adult": false
    },
    {
      "id": 5682836,
      "adult": false
    },
    {
      "id": 76582,
      "adult": true
    },
    {
      "id": 2437713,
      "adult": false
    },
    {
      "id": 4025433,
      "adult": false
    },
    {
      "id": 74251,
      "adult": true
    },
    {
      "id": 5682837,
      "adult": false
    },
    {
      "id": 5682838,
      "adult": false
    },
    {
      "id": 5682839,
      "adult": false
    },
    {
      "id": 5682840,
      "adult": false
    },
    {
      "id": 5682841,
      "adult": false
    },
    {
      "id": 5682842,
      "adult": false
    },
    {
      "id": 5682843,
      "adult": false
    },
    {
      "id": 5682844,
      "adult": false
    },
    {
      "id": 5682845,
      "adult": false
    },
    {
      "id": 220592,
      "adult": false
    },
    {
      "id": 5682846,
      "adult": false
    },
    {
      "id": 5682847,
      "adult": false
    },
    {
      "id": 5682848,
      "adult": false
    },
    {
      "id": 5682849,
      "adult": false
    },
    {
      "id": 5682850,
      "adult": false
    },
    {
      "id": 3071292,
      "adult": false
    },
    {
      "id": 5682851,
      "adult": false
    },
    {
      "id": 5682852,
      "adult": false
    },
    {
      "id": 5682853,
      "adult": false
    },
    {
      "id": 5682854,
      "adult": false
    },
    {
      "id": 5682855,
      "adult": false
    },
    {
      "id": 5682856,
      "adult": false
    },
    {
      "id": 4870183,
      "adult": false
    },
    {
      "id": 5682857,
      "adult": false
    },
    {
      "id": 5682858,
      "adult": false
    },
    {
      "id": 5682859,
      "adult": false
    },
    {
      "id": 5682860,
      "adult": false
    },
    {
      "id": 5682861,
      "adult": false
    },
    {
      "id": 4869601,
      "adult": false
    },
    {
      "id": 4687545,
      "adult": false
    },
    {
      "id": 5682862,
      "adult": false
    },
    {
      "id": 1513326,
      "adult": false
    },
    {
      "id": 5682863,
      "adult": false
    },
    {
      "id": 5682864,
      "adult": false
    },
    {
      "id": 5682865,
      "adult": false
    },
    {
      "id": 5682866,
      "adult": false
    },
    {
      "id": 1106142,
      "adult": false
    }
  ],
  "page": 4,
  "total_pages": 58,
  "total_results": 5702
}