{
  "results": [
    {
      "id": 139901,
      "adult": false
    },
    {
      "id": 2630997,
      "adult": false
    },
    {
      "id": 2055108,
      "adult": false
    },
    {
      "id": 5682904,
      "adult": false
    },
    {
      "id": 5682905,
      "adult": false
    },
    {
      "id": 2144177,
      "adult": false
    },
    {
      "id": 5682906,
      "adult": false
    },
    {
      "id": 5682907,
      "adult": false
    },
    {
      "id": 5682908,
      "adult": false
    },
    {
      "id": 80577,
      "adult": false
    },
    {
      "id": 5682909,
      "adult": false
    },
    {
      "id": 2196988,
      "adult": false
    },
    {
      "id": 97880,
      "adult": false
    },
    {
      "id": 11804,
      "adult": false
    },
    {
      "id": 5682910,
      "adult": false
    },
    {
      "id": 3138765,
      "adult": false
    },
    {
      "id": 5682911,
      "adult": false
    },
    {
      "id": 1630450,
      "adult": false
    },
    {
      "id": 2250154,
      "adult": false
    },
    {
      "id": 5682912,
      "adult": false
    },
    {
      "id": 5682913,
      "adult": false
    },
    {
      "id": 1607379,
      "adult": false
    },
    {
      "id": 5682914,
      "adult": false
    },
    {
      "id": 5682915,
      "adult": false
    },
    {
      "id": 5682916,
      "adult": false
    },
    {
      "id": 5682917,
      "adult": false
    },
    {
      "id": 5682918,
      "adult": false
    },
    {
      "id": 5682919,
      "adult": false
    },
    {
      "id": 5682920,
      "adult": false
    },
    {
      "id": 227741,
      "adult": false
    },
    {
      "id": 1163184,
      "adult": false
    },
    {
      "id": 3206569,
      "adult": false
    },
    {
      "id": 1619791,
      "adult": false
    },
    {
      "id": 3847110,
      "adult": false
    },
    {
      "id": 5682921,
      "adult": false
    },
    {
      "id": 5682922,
      "adult": false
    },
    {
      "id": 5682923,
      "adult": false
    },
    {
      "id": 5255869,
      "adult": false
    },
    {
      "id": 5682924,
      "adult": false
    },
    {
      "id": 112100,
      "adult": false
    },
    {
      "id": 5682925,
      "adult": false
    },
    {
      "id": 3556153,
      "adult": false
    },
    {
      "id": 90480,
      "adult": false
    },
    {
      "id": 15674,
      "adult": false
    },
    {
      "id": 16591,
      "adult": false
    },
    {
      "id": 41697,
      "adult": false
    },
    {
      "id": 41698,
      "adult": false
    },
    {
      "id": 5682926,
      "adult": false
    },
    {
      "id": 5682927,
      "adult": false
    },
    {
      "id": 591971,
      "adult": true
    },
    {
      "id": 5682928,
      "adult": false
    },
    {
      "id": 5682929,
      "adult": false
    },
    {
      "id": 5682930,
      "adult": false
    },
    {
      "id": 5682931,
      "adult": false
    },
    {
      "id": 5682932,
      "adult": false
    },
    {
      "id": 5682933,
      "adult": false
    },
    {
      "id": 5682934,
      "adult": false
    },
    {
      "id": 5682935,
      "adult": false
    },
    {
      "id": 5682936,
      "adult": false
    },
    {
      "id": 5682937,
      "adult": false
    },
    {
      "id": 5682938,
      "adult": false
    },
    {
      "id": 5682939,
      "adult": false
    },
    {
      "id": 5682940,
      "adult": false
    },
    {
      "id": 5682941,
      "adult": false
    },
    {
      "id": 5682942,
      "adult": false
    },
    {
      "id": 5682943,
      "adult": false
    },
    {
      "id": 1077792,
      "adult": false
    },
    {
      "id": 1237617,
      "adult": false
    },
    {
      "id": 58970,
      "adult": false
    },
    {
      "id": 1497913,
      "adult": false
    },
    {
      "id": 5682944,
      "adult": false
    },
    {
      "id": 3555086,
      "adult": true
    },
    {
      "id": 2011839,
      "adult": false
    },
    {
      "id": 5682945,
      "adult": false
    },
    {
      "id": 71069,
      "adult": false
    },
    {
      "id": 5682946,
      "adult": false
    },
    {
      "id": 5682947,
      "adult": false
    },
    {
      "id": 5682948,
      "adult": false
    },
    {
      "id": 1063276,
      "adult": false
    },
    {
      "id": 5682949,
      "adult": false
    },
    {
      "id": 5682950,
      "adult": false
    },
    {
      "id": 5682951,
      "adult": false
    },
    {
      "id": 5682952,
      "adult": false
    },
    {
      "id": 5682953,
      "adult": false
    },
    {
      "id": 5682954,
      "adult": false
    },
    {
      "id": 5682955,
      "adult": false
    },
    {
      "id": 5682956,
      "adult": false
    },
    {
      "id": 5682957,
      "adult": false
    },
    {
      "id": 5682958,
      "adult": false
    },
    {
      "id": 5682959,
      "adult": false
    },
    {
      "id": 5682960,
      "adult": false
    },
    {
      "id": 3978,
      "adult": false
    },
    {
      "id": 5682961,
      "adult": false
    },
    {
      "id": 5682962,
      "adult": false
    },
    {
      "id": 5682963,
      "adult": false
    },
    {
      "id": 5682964,
      "adult": false
    },
    {
      "id": 2604515,
      "adult": false
    },
    {
      "id": 5682965,
      "adult": false
    },
    {
      "id": 5682966,
      "adult": false
    },
    {
      "id": 5682967,
      "adult": false
    }
  ],
  "page": 6,
  "total_pages": 58,
  "total_results": 5702
}