{
  "results": [
    {
      "id": 85170,
      "adult": true
    },
    {
      "id": 300490,
      "adult": false
    },
    {
      "id": 29173,
      "adult": false
    },
    {
      "id": 7389,
      "adult": false
    },
    {
      "id": 25511,
      "adult": false
    },
    {
      "id": 228482,
      "adult": true
    },
    {
      "id": 300491,
      "adult": false
    },
    {
      "id": 299130,
      "adult": false
    },
    {
      "id": 85178,
      "adult": true
    },
    {
      "id": 300492,
      "adult": false
    },
    {
      "id": 279182,
      "adult": false
    },
    {
      "id": 215428,
      "adult": true
    },
    {
      "id": 300493,
      "adult": false
    },
    {
      "id": 287376,
      "adult": false
    },
    {
      "id": 283353,
      "adult": false
    },
    {
      "id": 93171,
      "adult": true
    },
    {
      "id": 119222,
      "adult": false
    },
    {
      "id": 215092,
      "adult": false
    },
    {
      "id": 19590,
      "adult": false
    },
    {
      "id": 66854,
      "adult": false
    },
    {
      "id": 299776,
      "adult": false
    },
    {
      "id": 219479,
      "adult": false
    },
    {
      "id": 75132,
      "adult": false
    },
    {
      "id": 261375,
      "adult": false
    },
    {
      "id": 81014,
      "adult": false
    },
    {
      "id": 129236,
      "adult": false
    },
    {
      "id": 207924,
      "adult": false
    },
    {
      "id": 902,
      "adult": false
    },
    {
      "id": 254356,
      "adult": false
    },
    {
      "id": 228689,
      "adult": false
    },
    {
      "id": 298791,
      "adult": false
    },
    {
      "id": 3845,
      "adult": false
    },
    {
      "id": 278566,
      "adult": false
    },
    {
      "id": 216994,
      "adult": false
    },
    {
      "id": 278162,
      "adult": false
    },
    {
      "id": 197478,
      "adult": false
    },
    {
      "id": 245143,
      "adult": false
    },
    {
      "id": 62911,
      "adult": false
    },
    {
      "id": 293432,
      "adult": false
    },
    {
      "id": 77493,
      "adult": false
    },
    {
      "id": 158285,
      "adult": false
    },
    {
      "id": 60742,
      "adult": false
    },
    {
      "id": 14658,
      "adult": false
    },
    {
      "id": 14210,
      "adult": false
    },
    {
      "id": 114860,
      "adult": false
    },
    {
      "id": 299205,
      "adult": false
    },
    {
      "id": 114867,
      "adult": false
    },
    {
      "id": 74035,
      "adult": false
    },
    {
      "id": 117717,
      "adult": false
    },
    {
      "id": 291076,
      "adult": false
    },
    {
      "id": 294744,
      "adult": false
    },
    {
      "id": 299951,
      "adult": false
    },
    {
      "id": 103234,
      "adult": true
    },
    {
      "id": 300494,
      "adult": false
    },
    {
      "id": 300406,
      "adult": false
    },
    {
      "id": 49191,
      "adult": false
    },
    {
      "id": 292689,
      "adult": false
    },
    {
      "id": 123249,
      "adult": false
    },
    {
      "id": 67042,
      "adult": false
    },
    {
      "id": 111998,
      "adult": false
    },
    {
      "id": 66987,
      "adult": false
    },
    {
      "id": 110381,
      "adult": false
    },
    {
      "id": 97433,
      "adult": true
    },
    {
      "id": 88396,
      "adult": false
    },
    {
      "id": 34827,
      "adult": false
    },
    {
      "id": 615,
      "adult": false
    },
    {
      "id": 258920,
      "adult": false
    },
    {
      "id": 253104,
      "adult": false
    },
    {
      "id": 134283,
      "adult": false
    },
    {
      "id": 89905,
      "adult": false
    },
    {
      "id": 72649,
      "adult": false
    },
    {
      "id": 212869,
      "adult": false
    },
    {
      "id": 236,
      "adult": false
    },
    {
      "id": 70453,
      "adult": false
    },
    {
      "id": 74606,
      "adult": false
    },
    {
      "id": 112238,
      "adult": false
    },
    {
      "id": 300417,
      "adult": false
    },
    {
      "id": 300413,
      "adult": false
    },
    {
      "id": 252550,
      "adult": true
    },
    {
      "id": 94605,
      "adult": false
    },
    {
      "id": 276288,
      "adult": false
    },
    {
      "id": 40616,
      "adult": false
    },
    {
      "id": 9203,
      "adult": false
    },
    {
      "id": 293371,
      "adult": false
    },
    {
      "id": 1405,
      "adult": false
    },
    {
      "id": 284058,
      "adult": false
    },
    {
      "id": 280571,
      "adult": false
    },
    {
      "id": 2518,
      "adult": false
    },
    {
      "id": 114531,
      "adult": false
    },
    {
      "id": 11977,
      "adult": false
    },
    {
      "id": 502,
      "adult": false
    },
    {
      "id": 251708,
      "adult": false
    },
    {
      "id": 299913,
      "adult": false
    },
    {
      "id": 237150,
      "adult": false
    },
    {
      "id": 205050,
      "adult": false
    },
    {
      "id": 199928,
      "adult": false
    },
    {
      "id": 243200,
      "adult": false
    },
    {
      "id": 270487,
      "adult": false
    },
    {
      "id": 203949,
      "adult": false
    },
    {
      "id": 282198,
      "adult": false
    }
  ],
  "page": 10,
  "total_pages": 25,
  "total_results": 2428
}