{
  "results": [
    {
      "id": 1418,
      "adult": false
    },
    {
      "id": 298954,
      "adult": false
    },
    {
      "id": 270462,
      "adult": false
    },
    {
      "id": 223326,
      "adult": false
    },
    {
      "id": 273617,
      "adult": false
    },
    {
      "id": 278870,
      "adult": false
    },
    {
      "id": 247043,
      "adult": false
    },
    {
      "id": 249039,
      "adult": false
    },
    {
      "id": 278011,
      "adult": false
    },
    {
      "id": 296193,
      "adult": false
    },
    {
      "id": 299617,
      "adult": false
    },
    {
      "id": 300431,
      "adult": false
    },
    {
      "id": 3237,
      "adult": false
    },
    {
      "id": 105217,
      "adult": false
    },
    {
      "id": 228305,
      "adult": false
    },
    {
      "id": 74544,
      "adult": false
    },
    {
      "id": 280418,
      "adult": false
    },
    {
      "id": 81922,
      "adult": false
    },
    {
      "id": 102712,
      "adult": false
    },
    {
      "id": 32727,
      "adult": false
    },
    {
      "id": 60835,
      "adult": false
    },
    {
      "id": 33238,
      "adult": false
    },
    {
      "id": 89393,
      "adult": false
    },
    {
      "id": 246862,
      "adult": false
    },
    {
      "id": 40008,
      "adult": false
    },
    {
      "id": 262849,
      "adult": false
    },
    {
      "id": 30881,
      "adult": false
    },
    {
      "id": 14279,
      "adult": false
    },
    {
      "id": 278006,
      "adult": false
    },
    {
      "id": 102376,
      "adult": false
    },
    {
      "id": 119272,
      "adult": false
    },
    {
      "id": 275648,
      "adult": false
    },
    {
      "id": 119171,
      "adult": false
    },
    {
      "id": 269,
      "adult": false
    },
    {
      "id": 61222,
      "adult": false
    },
    {
      "id": 94686,
      "adult": false
    },
    {
      "id": 10060,
      "adult": false
    },
    {
      "id": 10188,
      "adult": false
    },
    {
      "id": 294528,
      "adult": false
    },
    {
      "id": 291080,
      "adult": false
    },
    {
      "id": 276390,
      "adult": false
    },
    {
      "id": 60863,
      "adult": false
    },
    {
      "id": 300402,
      "adult": false
    },
    {
      "id": 226658,
      "adult": false
    },
    {
      "id": 235081,
      "adult": false
    },
    {
      "id": 292810,
      "adult": false
    },
    {
      "id": 2035,
      "adult": false
    },
    {
      "id": 95072,
      "adult": false
    },
    {
      "id": 279766,
      "adult": false
    },
    {
      "id": 59186,
      "adult": false
    },
    {
      "id": 299819,
      "adult": false
    },
    {
      "id": 300432,
      "adult": false
    },
    {
      "id": 300433,
      "adult": false
    },
    {
      "id": 227849,
      "adult": false
    },
    {
      "id": 231462,
      "adult": false
    },
    {
      "id": 289745,
      "adult": false
    },
    {
      "id": 241501,
      "adult": false
    },
    {
      "id": 263034,
      "adult": false
    },
    {
      "id": 194766,
      "adult": false
    },
    {
      "id": 300434,
      "adult": false
    },
    {
      "id": 298682,
      "adult": false
    },
    {
      "id": 240213,
      "adult": false
    },
    {
      "id": 101005,
      "adult": false
    },
    {
      "id": 242722,
      "adult": false
    },
    {
      "id": 247289,
      "adult": false
    },
    {
      "id": 196684,
      "adult": false
    },
    {
      "id": 298786,
      "adult": false
    },
    {
      "id": 133174,
      "adult": false
    },
    {
      "id": 254488,
      "adult": false
    },
    {
      "id": 300435,
      "adult": false
    },
    {
      "id": 797,
      "adult": false
    },
    {
      "id": 63087,
      "adult": false
    },
    {
      "id": 76662,
      "adult": false
    },
    {
      "id": 119168,
      "adult": false
    },
    {
      "id": 249767,
      "adult": false
    },
    {
      "id": 283358,
      "adult": false
    },
    {
      "id": 293703,
      "adult": false
    },
    {
      "id": 103331,
      "adult": false
    },
    {
      "id": 277665,
      "adult": false
    },
    {
      "id": 256721,
      "adult": false
    },
    {
      "id": 248707,
      "adult": false
    },
    {
      "id": 67482,
      "adult": false
    },
    {
      "id": 296502,
      "adult": false
    },
    {
      "id": 42705,
      "adult": false
    },
    {
      "id": 272556,
      "adult": false
    },
    {
      "id": 105179,
      "adult": false
    },
    {
      "id": 295893,
      "adult": false
    },
    {
      "id": 300436,
      "adult": null
    },
    {
      "id": 299916,
      "adult": false
    },
    {
      "id": 97573,
      "adult": null
    },
    {
      "id": 299126,
      "adult": false
    },
    {
      "id": 249042,
      "adult": false
    },
    {
      "id": 292531,
      "adult": false
    },
    {
      "id": 240411,
      "adult": false
    },
    {
      "id": 99747,
      "adult": false
    },
    {
      "id": 115004,
      "adult": false
    },
    {
      "id": 300020,
      "adult": false
    },
    {
      "id": 77042,
      "adult": false
    },
    {
      "id": 217465,
      "adult": false
    },
    {
      "id": 75863,
      "adult": false
    }
  ],
  "page": 1,
  "total_pages": 25,
  "total_results": 2428
}