{
  "results": [
    {
      "id": 274017,
      "adult": false
    },
    {
      "id": 85455,
      "adult": false
    },
    {
      "id": 224025,
      "adult": false
    },
    {
      "id": 103516,
      "adult": false
    },
    {
      "id": 62862,
      "adult": false
    },
    {
      "id": 245159,
      "adult": false
    },
    {
      "id": 89861,
      "adult": false
    },
    {
      "id": 290919,
      "adult": false
    },
    {
      "id": 66276,
      "adult": false
    },
    {
      "id": 23587,
      "adult": false
    },
    {
      "id": 206707,
      "adult": false
    },
    {
      "id": 206559,
      "adult": false
    },
    {
      "id": 258268,
      "adult": false
    },
    {
      "id": 274810,
      "adult": false
    },
    {
      "id": 235867,
      "adult": false
    },
    {
      "id": 283818,
      "adult": false
    },
    {
      "id": 15203,
      "adult": false
    },
    {
      "id": 295708,
      "adult": false
    },
    {
      "id": 294867,
      "adult": false
    },
    {
      "id": 4482,
      "adult": false
    },
    {
      "id": 240256,
      "adult": false
    },
    {
      "id": 296202,
      "adult": false
    },
    {
      "id": 231962,
      "adult": false
    },
    {
      "id": 121872,
      "adult": false
    },
    {
      "id": 121876,
      "adult": false
    },
    {
      "id": 126490,
      "adult": false
    },
    {
      "id": 111887,
      "adult": false
    },
    {
      "id": 298185,
      "adult": false
    },
    {
      "id": 235912,
      "adult": false
    },
    {
      "id": 61780,
      "adult": false
    },
    {
      "id": 5904,
      "adult": false
    },
    {
      "id": 1288,
      "adult": false
    },
    {
      "id": 259089,
      "adult": false
    },
    {
      "id": 55558,
      "adult": false
    },
    {
      "id": 226687,
      "adult": false
    },
    {
      "id": 80319,
      "adult": false
    },
    {
      "id": 283486,
      "adult": false
    },
    {
      "id": 128891,
      "adult": false
    },
    {
      "id": 251420,
      "adult": false
    },
    {
      "id": 223942,
      "adult": false
    },
    {
      "id": 269155,
      "adult": false
    },
    {
      "id": 133409,
      "adult": false
    },
    {
      "id": 114021,
      "adult": false
    },
    {
      "id": 51048,
      "adult": false
    },
    {
      "id": 37854,
      "adult": false
    },
    {
      "id": 126660,
      "adult": false
    },
    {
      "id": 50104,
      "adult": false
    },
    {
      "id": 299454,
      "adult": false
    },
    {
      "id": 116479,
      "adult": false
    },
    {
      "id": 243006,
      "adult": false
    },
    {
      "id": 300445,
      "adult": false
    },
    {
      "id": 120998,
      "adult": false
    },
    {
      "id": 276171,
      "adult": false
    },
    {
      "id": 224,
      "adult": false
    },
    {
      "id": 202297,
      "adult": false
    },
    {
      "id": 157239,
      "adult": false
    },
    {
      "id": 79921,
      "adult": false
    },
    {
      "id": 235805,
      "adult": false
    },
    {
      "id": 284968,
      "adult": false
    },
    {
      "id": 197956,
      "adult": false
    },
    {
      "id": 80276,
      "adult": false
    },
    {
      "id": 119509,
      "adult": false
    },
    {
      "id": 6060,
      "adult": false
    },
    {
      "id": 55385,
      "adult": false
    },
    {
      "id": 91555,
      "adult": false
    },
    {
      "id": 279344,
      "adult": false
    },
    {
      "id": 259453,
      "adult": false
    },
    {
      "id": 219816,
      "adult": false
    },
    {
      "id": 263292,
      "adult": false
    },
    {
      "id": 88367,
      "adult": false
    },
    {
      "id": 80275,
      "adult": false
    },
    {
      "id": 123053,
      "adult": false
    },
    {
      "id": 125476,
      "adult": false
    },
    {
      "id": 213830,
      "adult": false
    },
    {
      "id": 218849,
      "adult": false
    },
    {
      "id": 207564,
      "adult": false
    },
    {
      "id": 284753,
      "adult": false
    },
    {
      "id": 82817,
      "adult": false
    },
    {
      "id": 80325,
      "adult": false
    },
    {
      "id": 293372,
      "adult": false
    },
    {
      "id": 126782,
      "adult": false
    },
    {
      "id": 203689,
      "adult": false
    },
    {
      "id": 128547,
      "adult": false
    },
    {
      "id": 232548,
      "adult": false
    },
    {
      "id": 128849,
      "adult": false
    },
    {
      "id": 128866,
      "adult": false
    },
    {
      "id": 76782,
      "adult": false
    },
    {
      "id": 300091,
      "adult": false
    },
    {
      "id": 129331,
      "adult": false
    },
    {
      "id": 72448,
      "adult": false
    },
    {
      "id": 129510,
      "adult": false
    },
    {
      "id": 80320,
      "adult": false
    },
    {
      "id": 300446,
      "adult": false
    },
    {
      "id": 130896,
      "adult": false
    },
    {
      "id": 80324,
      "adult": false
    },
    {
      "id": 226174,
      "adult": false
    },
    {
      "id": 1920,
      "adult": false
    },
    {
      "id": 203769,
      "adult": false
    },
    {
      "id": 133753,
      "adult": false
    },
    {
      "id": 73072,
      "adult": false
    }
  ],
  "page": 3,
  "total_pages": 25,
  "total_results": 2428
}