{
  "results": [
    {
      "id": 135169,
      "adult": false
    },
    {
      "id": 78346,
      "adult": false
    },
    {
      "id": 252648,
      "adult": false
    },
    {
      "id": 137802,
      "adult": false
    },
    {
      "id": 286376,
      "adult": false
    },
    {
      "id": 138733,
      "adult": false
    },
    {
      "id": 156337,
      "adult": false
    },
    {
      "id": 205289,
      "adult": false
    },
    {
      "id": 214581,
      "adult": false
    },
    {
      "id": 226285,
      "adult": false
    },
    {
      "id": 39314,
      "adult": false
    },
    {
      "id": 215673,
      "adult": false
    },
    {
      "id": 124428,
      "adult": false
    },
    {
      "id": 203618,
      "adult": false
    },
    {
      "id": 127247,
      "adult": false
    },
    {
      "id": 295434,
      "adult": false
    },
    {
      "id": 215474,
      "adult": false
    },
    {
      "id": 128762,
      "adult": false
    },
    {
      "id": 216343,
      "adult": false
    },
    {
      "id": 296303,
      "adult": false
    },
    {
      "id": 73624,
      "adult": false
    },
    {
      "id": 222201,
      "adult": false
    },
    {
      "id": 205593,
      "adult": false
    },
    {
      "id": 230824,
      "adult": false
    },
    {
      "id": 270606,
      "adult": false
    },
    {
      "id": 71356,
      "adult": false
    },
    {
      "id": 78182,
      "adult": false
    },
    {
      "id": 967,
      "adult": false
    },
    {
      "id": 80322,
      "adult": false
    },
    {
      "id": 244463,
      "adult": false
    },
    {
      "id": 83022,
      "adult": false
    },
    {
      "id": 247142,
      "adult": false
    },
    {
      "id": 77090,
      "adult": false
    },
    {
      "id": 218847,
      "adult": false
    },
    {
      "id": 252838,
      "adult": false
    },
    {
      "id": 255299,
      "adult": false
    },
    {
      "id": 72435,
      "adult": false
    },
    {
      "id": 255432,
      "adult": false
    },
    {
      "id": 273259,
      "adult": false
    },
    {
      "id": 73377,
      "adult": false
    },
    {
      "id": 277407,
      "adult": false
    },
    {
      "id": 280016,
      "adult": false
    },
    {
      "id": 208088,
      "adult": false
    },
    {
      "id": 20090,
      "adult": false
    },
    {
      "id": 55650,
      "adult": false
    },
    {
      "id": 294014,
      "adult": false
    },
    {
      "id": 287267,
      "adult": false
    },
    {
      "id": 72443,
      "adult": false
    },
    {
      "id": 292144,
      "adult": false
    },
    {
      "id": 80323,
      "adult": false
    },
    {
      "id": 299719,
      "adult": false
    },
    {
      "id": 218943,
      "adult": false
    },
    {
      "id": 235493,
      "adult": false
    },
    {
      "id": 33364,
      "adult": false
    },
    {
      "id": 37305,
      "adult": false
    },
    {
      "id": 72449,
      "adult": false
    },
    {
      "id": 290830,
      "adult": false
    },
    {
      "id": 283390,
      "adult": false
    },
    {
      "id": 46549,
      "adult": false
    },
    {
      "id": 43587,
      "adult": false
    },
    {
      "id": 61031,
      "adult": false
    },
    {
      "id": 72474,
      "adult": false
    },
    {
      "id": 279993,
      "adult": false
    },
    {
      "id": 66440,
      "adult": false
    },
    {
      "id": 85974,
      "adult": false
    },
    {
      "id": 81957,
      "adult": false
    },
    {
      "id": 82043,
      "adult": false
    },
    {
      "id": 84371,
      "adult": false
    },
    {
      "id": 89219,
      "adult": false
    },
    {
      "id": 94815,
      "adult": false
    },
    {
      "id": 235539,
      "adult": false
    },
    {
      "id": 155667,
      "adult": false
    },
    {
      "id": 97040,
      "adult": false
    },
    {
      "id": 73620,
      "adult": false
    },
    {
      "id": 76512,
      "adult": false
    },
    {
      "id": 300266,
      "adult": false
    },
    {
      "id": 72450,
      "adult": false
    },
    {
      "id": 293535,
      "adult": false
    },
    {
      "id": 284195,
      "adult": false
    },
    {
      "id": 57532,
      "adult": false
    },
    {
      "id": 246246,
      "adult": false
    },
    {
      "id": 300447,
      "adult": true
    },
    {
      "id": 257723,
      "adult": false
    },
    {
      "id": 230855,
      "adult": false
    },
    {
      "id": 297866,
      "adult": false
    },
    {
      "id": 30623,
      "adult": false
    },
    {
      "id": 283770,
      "adult": false
    },
    {
      "id": 286198,
      "adult": false
    },
    {
      "id": 300448,
      "adult": false
    },
    {
      "id": 296399,
      "adult": true
    },
    {
      "id": 280945,
      "adult": false
    },
    {
      "id": 10360,
      "adult": false
    },
    {
      "id": 287929,
      "adult": false
    },
    {
      "id": 154636,
      "adult": true
    },
    {
      "id": 40075,
      "adult": false
    },
    {
      "id": 228540,
      "adult": false
    },
    {
      "id": 228367,
      "adult": true
    },
    {
      "id": 300449,
      "adult": false
    },
    {
      "id": 238280,
      "adult": true
    },
    {
      "id": 131927,
      "adult": false
    }
  ],
  "page": 4,
  "total_pages": 25,
  "total_results": 2428
}