{
  "results": [
    {
      "id": 275844,
      "adult": false
    },
    {
      "id": 234591,
      "adult": false
    },
    {
      "id": 56760,
      "adult": false
    },
    {
      "id": 293319,
      "adult": false
    },
    {
      "id": 300464,
      "adult": false
    },
    {
      "id": 204398,
      "adult": null
    },
    {
      "id": 300465,
      "adult": false
    },
    {
      "id": 274319,
      "adult": false
    },
    {
      "id": 21750,
      "adult": false
    },
    {
      "id": 299008,
      "adult": false
    },
    {
      "id": 271014,
      "adult": false
    },
    {
      "id": 221663,
      "adult": false
    },
    {
      "id": 32718,
      "adult": false
    },
    {
      "id": 300321,
      "adult": false
    },
    {
      "id": 289715,
      "adult": false
    },
    {
      "id": 300466,
      "adult": false
    },
    {
      "id": 300467,
      "adult": false
    },
    {
      "id": 6326,
      "adult": false
    },
    {
      "id": 206343,
      "adult": false
    },
    {
      "id": 100548,
      "adult": false
    },
    {
      "id": 58474,
      "adult": false
    },
    {
      "id": 252890,
      "adult": false
    },
    {
      "id": 124003,
      "adult": false
    },
    {
      "id": 289822,
      "adult": true
    },
    {
      "id": 60825,
      "adult": false
    },
    {
      "id": 300468,
      "adult": false
    },
    {
      "id": 66270,
      "adult": false
    },
    {
      "id": 276595,
      "adult": false
    },
    {
      "id": 60175,
      "adult": false
    },
    {
      "id": 300469,
      "adult": false
    },
    {
      "id": 210832,
      "adult": false
    },
    {
      "id": 98520,
      "adult": false
    },
    {
      "id": 137333,
      "adult": false
    },
    {
      "id": 136478,
      "adult": false
    },
    {
      "id": 271649,
      "adult": false
    },
    {
      "id": 300267,
      "adult": false
    },
    {
      "id": 113361,
      "adult": false
    },
    {
      "id": 245336,
      "adult": false
    },
    {
      "id": 131621,
      "adult": false
    },
    {
      "id": 281309,
      "adult": false
    },
    {
      "id": 256537,
      "adult": false
    },
    {
      "id": 217082,
      "adult": false
    },
    {
      "id": 228102,
      "adult": false
    },
    {
      "id": 299960,
      "adult": false
    },
    {
      "id": 299145,
      "adult": false
    },
    {
      "id": 298117,
      "adult": false
    },
    {
      "id": 298119,
      "adult": false
    },
    {
      "id": 287101,
      "adult": null
    },
    {
      "id": 139518,
      "adult": false
    },
    {
      "id": 215330,
      "adult": false
    },
    {
      "id": 289183,
      "adult": false
    },
    {
      "id": 274367,
      "adult": false
    },
    {
      "id": 9549,
      "adult": false
    },
    {
      "id": 285754,
      "adult": false
    },
    {
      "id": 291300,
      "adult": false
    },
    {
      "id": 294409,
      "adult": false
    },
    {
      "id": 220150,
      "adult": false
    },
    {
      "id": 278587,
      "adult": false
    },
    {
      "id": 237241,
      "adult": false
    },
    {
      "id": 284794,
      "adult": false
    },
    {
      "id": 300470,
      "adult": false
    },
    {
      "id": 210065,
      "adult": false
    },
    {
      "id": 60823,
      "adult": false
    },
    {
      "id": 120333,
      "adult": false
    },
    {
      "id": 74254,
      "adult": true
    },
    {
      "id": 285711,
      "adult": false
    },
    {
      "id": 210785,
      "adult": false
    },
    {
      "id": 211411,
      "adult": false
    },
    {
      "id": 68047,
      "adult": false
    },
    {
      "id": 71488,
      "adult": false
    },
    {
      "id": 261298,
      "adult": false
    },
    {
      "id": 298444,
      "adult": false
    },
    {
      "id": 300471,
      "adult": false
    },
    {
      "id": 275986,
      "adult": false
    },
    {
      "id": 49835,
      "adult": false
    },
    {
      "id": 89423,
      "adult": false
    },
    {
      "id": 94722,
      "adult": false
    },
    {
      "id": 99287,
      "adult": false
    },
    {
      "id": 278811,
      "adult": false
    },
    {
      "id": 86900,
      "adult": false
    },
    {
      "id": 239287,
      "adult": false
    },
    {
      "id": 14009,
      "adult": false
    },
    {
      "id": 155904,
      "adult": false
    },
    {
      "id": 300472,
      "adult": false
    },
    {
      "id": 253141,
      "adult": false
    },
    {
      "id": 283165,
      "adult": false
    },
    {
      "id": 68639,
      "adult": false
    },
    {
      "id": 128838,
      "adult": false
    },
    {
      "id": 300473,
      "adult": false
    },
    {
      "id": 261644,
      "adult": true
    },
    {
      "id": 21497,
      "adult": false
    },
    {
      "id": 1416,
      "adult": false
    },
    {
      "id": 300474,
      "adult": false
    },
    {
      "id": 277917,
      "adult": false
    },
    {
      "id": 1419,
      "adult": false
    },
    {
      "id": 275593,
      "adult": false
    },
    {
      "id": 106841,
      "adult": false
    },
    {
      "id": 505,
      "adult": false
    },
    {
      "id": 88909,
      "adult": false
    },
    {
      "id": 300475,
      "adult": false
    }
  ],
  "page": 8,
  "total_pages": 25,
  "total_results": 2428
}