{
  "results": [
    {
      "id": 212258,
      "adult": false
    },
    {
      "id": 286020,
      "adult": false
    },
    {
      "id": 300102,
      "adult": false
    },
    {
      "id": 292994,
      "adult": false
    },
    {
      "id": 18165,
      "adult": false
    },
    {
      "id": 2260,
      "adult": false
    },
    {
      "id": 291918,
      "adult": false
    },
    {
      "id": 300476,
      "adult": false
    },
    {
      "id": 153518,
      "adult": false
    },
    {
      "id": 287971,
      "adult": false
    },
    {
      "id": 278083,
      "adult": true
    },
    {
      "id": 298261,
      "adult": false
    },
    {
      "id": 300477,
      "adult": false
    },
    {
      "id": 298236,
      "adult": false
    },
    {
      "id": 39633,
      "adult": false
    },
    {
      "id": 194916,
      "adult": false
    },
    {
      "id": 39334,
      "adult": false
    },
    {
      "id": 247767,
      "adult": false
    },
    {
      "id": 154050,
      "adult": false
    },
    {
      "id": 247859,
      "adult": false
    },
    {
      "id": 1679,
      "adult": false
    },
    {
      "id": 300478,
      "adult": false
    },
    {
      "id": 262578,
      "adult": false
    },
    {
      "id": 80572,
      "adult": false
    },
    {
      "id": 300479,
      "adult": false
    },
    {
      "id": 294565,
      "adult": false
    },
    {
      "id": 36839,
      "adult": false
    },
    {
      "id": 209374,
      "adult": false
    },
    {
      "id": 282773,
      "adult": false
    },
    {
      "id": 300226,
      "adult": false
    },
    {
      "id": 300480,
      "adult": false
    },
    {
      "id": 88045,
      "adult": false
    },
    {
      "id": 270828,
      "adult": false
    },
    {
      "id": 113881,
      "adult": false
    },
    {
      "id": 300481,
      "adult": false
    },
    {
      "id": 154232,
      "adult": false
    },
    {
      "id": 300482,
      "adult": false
    },
    {
      "id": 292327,
      "adult": false
    },
    {
      "id": 1489,
      "adult": false
    },
    {
      "id": 65843,
      "adult": false
    },
    {
      "id": 104811,
      "adult": false
    },
    {
      "id": 300483,
      "adult": false
    },
    {
      "id": 291021,
      "adult": false
    },
    {
      "id": 2211,
      "adult": false
    },
    {
      "id": 300484,
      "adult": false
    },
    {
      "id": 89074,
      "adult": false
    },
    {
      "id": 33833,
      "adult": false
    },
    {
      "id": 85134,
      "adult": true
    },
    {
      "id": 224414,
      "adult": false
    },
    {
      "id": 9290,
      "adult": false
    },
    {
      "id": 19041,
      "adult": null
    },
    {
      "id": 300485,
      "adult": false
    },
    {
      "id": 274548,
      "adult": false
    },
    {
      "id": 138357,
      "adult": false
    },
    {
      "id": 228547,
      "adult": false
    },
    {
      "id": 300486,
      "adult": false
    },
    {
      "id": 300487,
      "adult": false
    },
    {
      "id": 15706,
      "adult": false
    },
    {
      "id": 216467,
      "adult": false
    },
    {
      "id": 295820,
      "adult": false
    },
    {
      "id": 250596,
      "adult": false
    },
    {
      "id": 291148,
      "adult": false
    },
    {
      "id": 9152,
      "adult": false
    },
    {
      "id": 272622,
      "adult": false
    },
    {
      "id": 291753,
      "adult": false
    },
    {
      "id": 66743,
      "adult": false
    },
    {
      "id": 709,
      "adult": false
    },
    {
      "id": 130802,
      "adult": true
    },
    {
      "id": 300488,
      "adult": false
    },
    {
      "id": 294614,
      "adult": false
    },
    {
      "id": 110492,
      "adult": false
    },
    {
      "id": 290692,
      "adult": false
    },
    {
      "id": 278994,
      "adult": false
    },
    {
      "id": 50830,
      "adult": false
    },
    {
      "id": 86031,
      "adult": false
    },
    {
      "id": 120064,
      "adult": false
    },
    {
      "id": 240382,
      "adult": false
    },
    {
      "id": 90802,
      "adult": false
    },
    {
      "id": 295276,
      "adult": false
    },
    {
      "id": 300489,
      "adult": false
    },
    {
      "id": 234505,
      "adult": false
    },
    {
      "id": 456,
      "adult": false
    },
    {
      "id": 299885,
      "adult": false
    },
    {
      "id": 236450,
      "adult": false
    },
    {
      "id": 98903,
      "adult": false
    },
    {
      "id": 241628,
      "adult": false
    },
    {
      "id": 283599,
      "adult": false
    },
    {
      "id": 132327,
      "adult": false
    },
    {
      "id": 67346,
      "adult": false
    },
    {
      "id": 278507,
      "adult": false
    },
    {
      "id": 119051,
      "adult": false
    },
    {
      "id": 76462,
      "adult": false
    },
    {
      "id": 21296,
      "adult": false
    },
    {
      "id": 239362,
      "adult": false
    },
    {
      "id": 66875,
      "adult": false
    },
    {
      "id": 299709,
      "adult": false
    },
    {
      "id": 285479,
      "adult": false
    },
    {
      "id": 259214,
      "adult": true
    },
    {
      "id": 289214,
      "adult": false
    },
    {
      "id": 292615,
      "adult": false
    }
  ],
  "page": 9,
  "total_pages": 25,
  "total_results": 2428
}