{
  "results": [
    {
      "id": 154054,
      "adult": false
    },
    {
      "id": 154230,
      "adult": false
    },
    {
      "id": 17039,
      "adult": false
    },
    {
      "id": 195373,
      "adult": false
    },
    {
      "id": 211073,
      "adult": false
    },
    {
      "id": 271607,
      "adult": false
    },
    {
      "id": 292064,
      "adult": false
    },
    {
      "id": 211692,
      "adult": false
    },
    {
      "id": 291902,
      "adult": false
    },
    {
      "id": 261081,
      "adult": false
    },
    {
      "id": 91454,
      "adult": false
    },
    {
      "id": 214806,
      "adult": false
    },
    {
      "id": 214461,
      "adult": false
    },
    {
      "id": 74824,
      "adult": false
    },
    {
      "id": 285368,
      "adult": false
    },
    {
      "id": 215421,
      "adult": false
    },
    {
      "id": 21815,
      "adult": false
    },
    {
      "id": 224733,
      "adult": false
    },
    {
      "id": 226527,
      "adult": false
    },
    {
      "id": 298545,
      "adult": false
    },
    {
      "id": 227192,
      "adult": false
    },
    {
      "id": 42763,
      "adult": false
    },
    {
      "id": 229371,
      "adult": false
    },
    {
      "id": 271105,
      "adult": false
    },
    {
      "id": 300454,
      "adult": false
    },
    {
      "id": 230137,
      "adult": false
    },
    {
      "id": 236956,
      "adult": false
    },
    {
      "id": 68479,
      "adult": false
    },
    {
      "id": 254247,
      "adult": false
    },
    {
      "id": 296206,
      "adult": false
    },
    {
      "id": 254799,
      "adult": false
    },
    {
      "id": 68115,
      "adult": false
    },
    {
      "id": 256725,
      "adult": false
    },
    {
      "id": 212669,
      "adult": false
    },
    {
      "id": 262831,
      "adult": false
    },
    {
      "id": 205461,
      "adult": false
    },
    {
      "id": 255443,
      "adult": false
    },
    {
      "id": 270975,
      "adult": false
    },
    {
      "id": 299555,
      "adult": false
    },
    {
      "id": 276230,
      "adult": false
    },
    {
      "id": 279246,
      "adult": false
    },
    {
      "id": 288684,
      "adult": false
    },
    {
      "id": 273247,
      "adult": false
    },
    {
      "id": 30810,
      "adult": false
    },
    {
      "id": 20354,
      "adult": false
    },
    {
      "id": 278330,
      "adult": false
    },
    {
      "id": 4123,
      "adult": false
    },
    {
      "id": 299362,
      "adult": false
    },
    {
      "id": 286382,
      "adult": false
    },
    {
      "id": 290814,
      "adult": false
    },
    {
      "id": 272118,
      "adult": false
    },
    {
      "id": 292208,
      "adult": false
    },
    {
      "id": 966,
      "adult": false
    },
    {
      "id": 296213,
      "adult": false
    },
    {
      "id": 299887,
      "adult": false
    },
    {
      "id": 299893,
      "adult": false
    },
    {
      "id": 256853,
      "adult": false
    },
    {
      "id": 44389,
      "adult": false
    },
    {
      "id": 300455,
      "adult": false
    },
    {
      "id": 44553,
      "adult": false
    },
    {
      "id": 242706,
      "adult": false
    },
    {
      "id": 46234,
      "adult": false
    },
    {
      "id": 254701,
      "adult": false
    },
    {
      "id": 1711,
      "adult": false
    },
    {
      "id": 73199,
      "adult": false
    },
    {
      "id": 300456,
      "adult": false
    },
    {
      "id": 212766,
      "adult": false
    },
    {
      "id": 112470,
      "adult": false
    },
    {
      "id": 2042,
      "adult": false
    },
    {
      "id": 51049,
      "adult": false
    },
    {
      "id": 229836,
      "adult": false
    },
    {
      "id": 78140,
      "adult": false
    },
    {
      "id": 196890,
      "adult": false
    },
    {
      "id": 291895,
      "adult": false
    },
    {
      "id": 194676,
      "adult": false
    },
    {
      "id": 240558,
      "adult": false
    },
    {
      "id": 20018,
      "adult": false
    },
    {
      "id": 52459,
      "adult": false
    },
    {
      "id": 64097,
      "adult": false
    },
    {
      "id": 300316,
      "adult": null
    },
    {
      "id": 65275,
      "adult": false
    },
    {
      "id": 65420,
      "adult": false
    },
    {
      "id": 67773,
      "adult": false
    },
    {
      "id": 284488,
      "adult": false
    },
    {
      "id": 207332,
      "adult": false
    },
    {
      "id": 297791,
      "adult": false
    },
    {
      "id": 211684,
      "adult": false
    },
    {
      "id": 72879,
      "adult": false
    },
    {
      "id": 106292,
      "adult": false
    },
    {
      "id": 283645,
      "adult": false
    },
    {
      "id": 86314,
      "adult": null
    },
    {
      "id": 250307,
      "adult": false
    },
    {
      "id": 212408,
      "adult": false
    },
    {
      "id": 68938,
      "adult": false
    },
    {
      "id": 65334,
      "adult": false
    },
    {
      "id": 68979,
      "adult": false
    },
    {
      "id": 2802,
      "adult": false
    },
    {
      "id": 69413,
      "adult": false
    },
    {
      "id": 69974,
      "adult": false
    },
    {
      "id": 70156,
      "adult": false
    }
  ],
  "page": 6,
  "total_pages": 25,
  "total_results": 2428
}