{
  "results": [
    {
      "id": 65249,
      "adult": false
    },
    {
      "id": 70763,
      "adult": false
    },
    {
      "id": 68799,
      "adult": false
    },
    {
      "id": 71837,
      "adult": false
    },
    {
      "id": 204570,
      "adult": false
    },
    {
      "id": 118662,
      "adult": false
    },
    {
      "id": 42503,
      "adult": false
    },
    {
      "id": 84647,
      "adult": false
    },
    {
      "id": 298220,
      "adult": false
    },
    {
      "id": 95176,
      "adult": false
    },
    {
      "id": 282666,
      "adult": false
    },
    {
      "id": 112556,
      "adult": false
    },
    {
      "id": 250446,
      "adult": false
    },
    {
      "id": 2764,
      "adult": false
    },
    {
      "id": 294988,
      "adult": false
    },
    {
      "id": 294748,
      "adult": false
    },
    {
      "id": 300457,
      "adult": false
    },
    {
      "id": 1220,
      "adult": false
    },
    {
      "id": 224942,
      "adult": false
    },
    {
      "id": 291887,
      "adult": false
    },
    {
      "id": 25114,
      "adult": false
    },
    {
      "id": 238095,
      "adult": false
    },
    {
      "id": 245692,
      "adult": false
    },
    {
      "id": 92611,
      "adult": false
    },
    {
      "id": 262279,
      "adult": false
    },
    {
      "id": 241811,
      "adult": false
    },
    {
      "id": 73141,
      "adult": false
    },
    {
      "id": 74065,
      "adult": false
    },
    {
      "id": 75985,
      "adult": false
    },
    {
      "id": 253342,
      "adult": false
    },
    {
      "id": 76722,
      "adult": false
    },
    {
      "id": 76777,
      "adult": false
    },
    {
      "id": 79603,
      "adult": false
    },
    {
      "id": 299291,
      "adult": false
    },
    {
      "id": 113882,
      "adult": false
    },
    {
      "id": 83138,
      "adult": false
    },
    {
      "id": 279542,
      "adult": false
    },
    {
      "id": 298770,
      "adult": false
    },
    {
      "id": 255090,
      "adult": false
    },
    {
      "id": 84118,
      "adult": false
    },
    {
      "id": 95897,
      "adult": false
    },
    {
      "id": 101275,
      "adult": false
    },
    {
      "id": 85078,
      "adult": false
    },
    {
      "id": 90476,
      "adult": false
    },
    {
      "id": 70206,
      "adult": false
    },
    {
      "id": 91302,
      "adult": false
    },
    {
      "id": 81329,
      "adult": false
    },
    {
      "id": 245534,
      "adult": false
    },
    {
      "id": 289892,
      "adult": false
    },
    {
      "id": 74876,
      "adult": false
    },
    {
      "id": 300390,
      "adult": false
    },
    {
      "id": 91829,
      "adult": false
    },
    {
      "id": 990,
      "adult": false
    },
    {
      "id": 2287,
      "adult": false
    },
    {
      "id": 234724,
      "adult": false
    },
    {
      "id": 83256,
      "adult": false
    },
    {
      "id": 279937,
      "adult": false
    },
    {
      "id": 300261,
      "adult": false
    },
    {
      "id": 253941,
      "adult": false
    },
    {
      "id": 233742,
      "adult": false
    },
    {
      "id": 32111,
      "adult": false
    },
    {
      "id": 281004,
      "adult": false
    },
    {
      "id": 298732,
      "adult": false
    },
    {
      "id": 116799,
      "adult": false
    },
    {
      "id": 240132,
      "adult": false
    },
    {
      "id": 238339,
      "adult": false
    },
    {
      "id": 85937,
      "adult": false
    },
    {
      "id": 300458,
      "adult": false
    },
    {
      "id": 261947,
      "adult": false
    },
    {
      "id": 6809,
      "adult": false
    },
    {
      "id": 298320,
      "adult": false
    },
    {
      "id": 219760,
      "adult": false
    },
    {
      "id": 200569,
      "adult": false
    },
    {
      "id": 57861,
      "adult": false
    },
    {
      "id": 300459,
      "adult": false
    },
    {
      "id": 97427,
      "adult": false
    },
    {
      "id": 295410,
      "adult": false
    },
    {
      "id": 293965,
      "adult": false
    },
    {
      "id": 290634,
      "adult": false
    },
    {
      "id": 299898,
      "adult": false
    },
    {
      "id": 273055,
      "adult": false
    },
    {
      "id": 300460,
      "adult": false
    },
    {
      "id": 154462,
      "adult": false
    },
    {
      "id": 210860,
      "adult": false
    },
    {
      "id": 300235,
      "adult": false
    },
    {
      "id": 2527,
      "adult": false
    },
    {
      "id": 292554,
      "adult": false
    },
    {
      "id": 102275,
      "adult": false
    },
    {
      "id": 226415,
      "adult": false
    },
    {
      "id": 221901,
      "adult": false
    },
    {
      "id": 253372,
      "adult": false
    },
    {
      "id": 300461,
      "adult": false
    },
    {
      "id": 299184,
      "adult": false
    },
    {
      "id": 109096,
      "adult": false
    },
    {
      "id": 286227,
      "adult": false
    },
    {
      "id": 67198,
      "adult": false
    },
    {
      "id": 131040,
      "adult": false
    },
    {
      "id": 300462,
      "adult": false
    },
    {
      "id": 300463,
      "adult": false
    },
    {
      "id": 48175,
      "adult": false
    }
  ],
  "page": 7,
  "total_pages": 25,
  "total_results": 2428
}