{
  "results": [
    {
      "id": 237539,
      "adult": true
    },
    {
      "id": 224165,
      "adult": true
    },
    {
      "id": 141,
      "adult": false
    },
    {
      "id": 299964,
      "adult": false
    },
    {
      "id": 158203,
      "adult": true
    },
    {
      "id": 134333,
      "adult": false
    },
    {
      "id": 290998,
      "adult": true
    },
    {
      "id": 231727,
      "adult": false
    },
    {
      "id": 80350,
      "adult": false
    },
    {
      "id": 1395,
      "adult": false
    },
    {
      "id": 51015,
      "adult": false
    },
    {
      "id": 300450,
      "adult": true
    },
    {
      "id": 298931,
      "adult": false
    },
    {
      "id": 49109,
      "adult": false
    },
    {
      "id": 73518,
      "adult": false
    },
    {
      "id": 258348,
      "adult": false
    },
    {
      "id": 259909,
      "adult": false
    },
    {
      "id": 246631,
      "adult": false
    },
    {
      "id": 534,
      "adult": false
    },
    {
      "id": 77760,
      "adult": false
    },
    {
      "id": 79166,
      "adult": false
    },
    {
      "id": 296123,
      "adult": false
    },
    {
      "id": 297401,
      "adult": false
    },
    {
      "id": 2447,
      "adult": false
    },
    {
      "id": 293124,
      "adult": false
    },
    {
      "id": 233375,
      "adult": false
    },
    {
      "id": 285828,
      "adult": false
    },
    {
      "id": 278367,
      "adult": false
    },
    {
      "id": 228853,
      "adult": false
    },
    {
      "id": 16322,
      "adult": false
    },
    {
      "id": 103113,
      "adult": false
    },
    {
      "id": 43865,
      "adult": false
    },
    {
      "id": 157950,
      "adult": false
    },
    {
      "id": 39276,
      "adult": false
    },
    {
      "id": 300451,
      "adult": false
    },
    {
      "id": 68711,
      "adult": false
    },
    {
      "id": 299938,
      "adult": false
    },
    {
      "id": 113272,
      "adult": false
    },
    {
      "id": 204101,
      "adult": false
    },
    {
      "id": 237243,
      "adult": false
    },
    {
      "id": 290806,
      "adult": false
    },
    {
      "id": 294153,
      "adult": false
    },
    {
      "id": 56570,
      "adult": false
    },
    {
      "id": 241114,
      "adult": false
    },
    {
      "id": 212496,
      "adult": false
    },
    {
      "id": 232553,
      "adult": false
    },
    {
      "id": 274992,
      "adult": false
    },
    {
      "id": 367,
      "adult": false
    },
    {
      "id": 69066,
      "adult": false
    },
    {
      "id": 68702,
      "adult": false
    },
    {
      "id": 37851,
      "adult": false
    },
    {
      "id": 83272,
      "adult": false
    },
    {
      "id": 243718,
      "adult": false
    },
    {
      "id": 300030,
      "adult": false
    },
    {
      "id": 261125,
      "adult": false
    },
    {
      "id": 100717,
      "adult": false
    },
    {
      "id": 103379,
      "adult": false
    },
    {
      "id": 104686,
      "adult": false
    },
    {
      "id": 219937,
      "adult": false
    },
    {
      "id": 105359,
      "adult": false
    },
    {
      "id": 1265,
      "adult": false
    },
    {
      "id": 106600,
      "adult": false
    },
    {
      "id": 107945,
      "adult": false
    },
    {
      "id": 111513,
      "adult": false
    },
    {
      "id": 111530,
      "adult": false
    },
    {
      "id": 115050,
      "adult": false
    },
    {
      "id": 300452,
      "adult": false
    },
    {
      "id": 8106,
      "adult": false
    },
    {
      "id": 74823,
      "adult": false
    },
    {
      "id": 116996,
      "adult": false
    },
    {
      "id": 117058,
      "adult": false
    },
    {
      "id": 283983,
      "adult": false
    },
    {
      "id": 1021,
      "adult": false
    },
    {
      "id": 122098,
      "adult": false
    },
    {
      "id": 124190,
      "adult": false
    },
    {
      "id": 228632,
      "adult": false
    },
    {
      "id": 128459,
      "adult": false
    },
    {
      "id": 194764,
      "adult": false
    },
    {
      "id": 15188,
      "adult": false
    },
    {
      "id": 98632,
      "adult": false
    },
    {
      "id": 241069,
      "adult": false
    },
    {
      "id": 2621,
      "adult": false
    },
    {
      "id": 3412,
      "adult": false
    },
    {
      "id": 129514,
      "adult": false
    },
    {
      "id": 5266,
      "adult": false
    },
    {
      "id": 129748,
      "adult": false
    },
    {
      "id": 132536,
      "adult": false
    },
    {
      "id": 272418,
      "adult": false
    },
    {
      "id": 8425,
      "adult": false
    },
    {
      "id": 133873,
      "adult": false
    },
    {
      "id": 243256,
      "adult": false
    },
    {
      "id": 135687,
      "adult": false
    },
    {
      "id": 136861,
      "adult": false
    },
    {
      "id": 2384,
      "adult": false
    },
    {
      "id": 132223,
      "adult": false
    },
    {
      "id": 137467,
      "adult": false
    },
    {
      "id": 64564,
      "adult": false
    },
    {
      "id": 137856,
      "adult": false
    },
    {
      "id": 25992,
      "adult": false
    },
    {
      "id": 300453,
      "adult": false
    }
  ],
  "page": 5,
  "total_pages": 25,
  "total_results": 2428
}