{
  "results": [
    {
      "id": 107113,
      "adult": false
    },
    {
      "id": 207468,
      "adult": false
    },
    {
      "id": 108746,
      "adult": false
    },
    {
      "id": 2912,
      "adult": false
    },
    {
      "id": 299874,
      "adult": false
    },
    {
      "id": 263689,
      "adult": false
    },
    {
      "id": 298234,
      "adult": false
    },
    {
      "id": 83295,
      "adult": false
    },
    {
      "id": 289301,
      "adult": null
    },
    {
      "id": 225755,
      "adult": false
    },
    {
      "id": 26686,
      "adult": false
    },
    {
      "id": 138505,
      "adult": false
    },
    {
      "id": 1743,
      "adult": false
    },
    {
      "id": 241506,
      "adult": false
    },
    {
      "id": 299922,
      "adult": false
    },
    {
      "id": 3050,
      "adult": false
    },
    {
      "id": 51410,
      "adult": false
    },
    {
      "id": 205715,
      "adult": false
    },
    {
      "id": 279900,
      "adult": false
    },
    {
      "id": 1431,
      "adult": false
    },
    {
      "id": 81153,
      "adult": false
    },
    {
      "id": 299137,
      "adult": false
    },
    {
      "id": 2851,
      "adult": false
    },
    {
      "id": 79277,
      "adult": false
    },
    {
      "id": 300437,
      "adult": false
    },
    {
      "id": 253376,
      "adult": false
    },
    {
      "id": 248416,
      "adult": false
    },
    {
      "id": 219783,
      "adult": false
    },
    {
      "id": 216881,
      "adult": false
    },
    {
      "id": 240686,
      "adult": false
    },
    {
      "id": 155441,
      "adult": false
    },
    {
      "id": 56356,
      "adult": false
    },
    {
      "id": 256278,
      "adult": false
    },
    {
      "id": 246485,
      "adult": false
    },
    {
      "id": 300258,
      "adult": false
    },
    {
      "id": 298844,
      "adult": false
    },
    {
      "id": 2685,
      "adult": false
    },
    {
      "id": 1181,
      "adult": false
    },
    {
      "id": 121659,
      "adult": false
    },
    {
      "id": 283504,
      "adult": false
    },
    {
      "id": 5217,
      "adult": false
    },
    {
      "id": 273271,
      "adult": false
    },
    {
      "id": 299808,
      "adult": false
    },
    {
      "id": 11110,
      "adult": false
    },
    {
      "id": 125909,
      "adult": false
    },
    {
      "id": 299365,
      "adult": false
    },
    {
      "id": 21304,
      "adult": false
    },
    {
      "id": 224820,
      "adult": false
    },
    {
      "id": 258013,
      "adult": false
    },
    {
      "id": 300438,
      "adult": false
    },
    {
      "id": 300439,
      "adult": false
    },
    {
      "id": 296263,
      "adult": false
    },
    {
      "id": 1447,
      "adult": false
    },
    {
      "id": 101868,
      "adult": false
    },
    {
      "id": 106935,
      "adult": false
    },
    {
      "id": 109699,
      "adult": false
    },
    {
      "id": 299778,
      "adult": false
    },
    {
      "id": 117993,
      "adult": false
    },
    {
      "id": 284388,
      "adult": false
    },
    {
      "id": 65930,
      "adult": false
    },
    {
      "id": 300440,
      "adult": false
    },
    {
      "id": 6071,
      "adult": false
    },
    {
      "id": 228880,
      "adult": false
    },
    {
      "id": 277544,
      "adult": false
    },
    {
      "id": 51676,
      "adult": false
    },
    {
      "id": 296287,
      "adult": false
    },
    {
      "id": 88175,
      "adult": false
    },
    {
      "id": 300441,
      "adult": false
    },
    {
      "id": 247732,
      "adult": false
    },
    {
      "id": 222624,
      "adult": false
    },
    {
      "id": 284442,
      "adult": false
    },
    {
      "id": 300351,
      "adult": false
    },
    {
      "id": 258321,
      "adult": false
    },
    {
      "id": 300442,
      "adult": false
    },
    {
      "id": 290843,
      "adult": false
    },
    {
      "id": 282662,
      "adult": false
    },
    {
      "id": 111116,
      "adult": false
    },
    {
      "id": 94997,
      "adult": false
    },
    {
      "id": 244197,
      "adult": false
    },
    {
      "id": 84737,
      "adult": false
    },
    {
      "id": 276349,
      "adult": false
    },
    {
      "id": 2224,
      "adult": false
    },
    {
      "id": 63770,
      "adult": false
    },
    {
      "id": 114054,
      "adult": false
    },
    {
      "id": 285070,
      "adult": false
    },
    {
      "id": 211215,
      "adult": false
    },
    {
      "id": 262259,
      "adult": false
    },
    {
      "id": 284241,
      "adult": false
    },
    {
      "id": 288096,
      "adult": false
    },
    {
      "id": 103960,
      "adult": false
    },
    {
      "id": 300443,
      "adult": false
    },
    {
      "id": 286404,
      "adult": false
    },
    {
      "id": 293429,
      "adult": false
    },
    {
      "id": 279345,
      "adult": false
    },
    {
      "id": 279512,
      "adult": false
    },
    {
      "id": 293010,
      "adult": false
    },
    {
      "id": 233519,
      "adult": false
    },
    {
      "id": 283245,
      "adult": false
    },
    {
      "id": 300444,
      "adult": false
    },
    {
      "id": 46151,
      "adult": false
    }
  ],
  "page": 2,
  "total_pages": 25,
  "total_results": 2428
}